"3IIFRY8T6OOH"
"8CIV81VJKQEL"
"X8YDSTVTU8BG"
"4V0NHMMBSNLO"
"ASZH2A6N0L5F"
"WUDMD6KYDIDS"
"4WB9856VLF1E"
"7ETJGTZJ63OD"
"U41CO8VCP3UM"
"Y1EJ1KS999XB"
"K2LYYKN8IDEF"
"242NAGPPJU9P"
"LJKWMQ31OP1O"
"F6VNU3S99AH7"
"2BJ1DWZR4C7H"
"545I5409JNA2"
"RUW9VSUYX4MR"
"T5JCXYNGG604"
"SXQB5W77Z1WJ"
"N8FRGKQQF3L7"
"31P8KA5ZFWBN"
"RTR15U6Z0ONJ"
"M133ADQBZNCU"
"VXF3XUN38XIR"
"UIO53B4K35AG"
"NGZC3GQ7C4WO"
"MCCDLZEB7UYB"
"38TB8LVL780F"
"FP6OKJYNSM5K"
"DZ4NUXBI3CH9"
"HM40OHXLJNFN"
"D39T6KBBULJJ"
"GWAP8RX1BXJ0"
"IV3HRGNJKMA9"
"AVZVR2I20TMI"
"A00M871A7IT9"
"SGQ45OSFX06Q"
"53UEPE3SK6B2"
"31RDQVP0E81V"
"RDA2X8FTJWX0"
"3UW9267FHDS6"
"0Z3PEHTX4MJJ"
"GAWRQY4V5U85"
"8B9WXXK8NQDA"
"GNIANLDKB2KW"
"S8OA56BV4F45"
"89HNOAV29ZYK"
"RHMV9WU8L0OR"
"MJCU6JE663D0"
"S5SJTTY53C35"
"69VJK5U74YRB"
"AVM7NLFPGEGM"
"VWUYGCVGO450"
"5K6KVOMXW54C"
"F0F17EYHFTD9"
"M15I2H1QVCJO"
"BEP0XI9LVQF0"
"QBQ4T7TRUBK2"
"Q26FJ019UHBP"
"STLIOIEYKE2Y"
"6IP1ADYR4HAF"
"AK269VXE84NH"
"GSLOS95GRJYH"
"KSPQ63EWYC9V"
"LLS1JFI24CH6"
"F9SYQ1HD198M"
"2M42JEMH9Y3L"
"XTSVRUK5FK47"
"P3T06LOY3XGW"
"ZUI4AYSLSJC0"
"S6UQCLOPVJ89"
"2FTF2J4QEEAH"
"JR9EPR4JTXEN"
"43HL4V52X7M5"
"T5VSSVW0R81E"
"MW68N6FOVZCP"
"4X4BZFC6QN5Q"
"IN3L0VD3H5K1"
"AM2GVMT60GHT"
"N317YEVWK7TE"
"V5PV6OOW0LRJ"
"P291FLZ4AZBF"
"LELD9VXDJLEN"
"ZPP6XLR6L3Z6"
"DO3CUZWA2A9K"
"99063BZLG91A"
"DMP7H3HBKBZW"
"QC9ZMKPD7EL7"
"BCPIRS97435L"
"8OHR6S3EX7YM"
"VOQKGSIQ5I4O"
"YLJI7KI6JWG1"
"NOKD8GH7NTMB"
"CLMWBTWSXUN3"
"00F87PUP4JG4"
"PEQJIRPXBUV2"
"M4OFLE58TFHF"
"DNTIXH00X0YZ"
"L8HGP5NODM98"
"43FRQ8QKVAUK"
"L11HJSJNDEFC"
"VQCD0Y2OPGF8"
"EBA7PWNBGDBB"
"D5614BAUBW0X"
"6KRCZ2HI0CUS"
"J9LSC38OEHAW"
"KDBTDA76VQ8L"
"7B36QPZ33K7V"
"OC9VLXVM1KTC"
"G30058WW0FSJ"
"RKYQMY29OJ03"
"O5UT4AHRYUYD"
"25IXE927MOJU"
"IJQF568C65KB"
"JGXVLIBFSHD0"
"QA37F2BZ6L6A"
"W1L3S5Q8F1ZA"
"FSL5EP3C40EC"
"ILMIYBYSYMO1"
"JX9O90AELLNP"
"RV9QT8IAEZIK"
"NZ334G7IQOR5"
"3CW01B3T62CM"
"K5OLS34Y2UKD"
"MYIG8QEBBJ31"
"A2KOPAS4LXTN"
"TRAPAID1QMAH"
"Q3YAGTT8FVE1"
"2LS36RYZLEDE"
"RI3HNN2WKK4R"
"WUF8R5S0OQ2T"
"58562DDB6YKA"
"E9W1ZZ519JO4"
"AQKMA3L1O7RJ"
"B0318VIUQSNG"
"TB6RJ096HSA1"
"WZKEUGAOEKCU"
"B6MNCWPOYL1T"
"9R3AGV32BWSP"
"WK5Y75EX0YQ5"
"XY2DE7UITYL8"
"M3DGAVSFJI1F"
"10K9P7HI8JD0"
"O641B6LGI9WF"
"S89KVLNTX75W"
"BIWE7CKZ1P4G"
"II62QV23EA36"
"RM7NQEVP06YZ"
"A8OUYAIFDJUR"
"AN57F17KZBWS"
"A9DPWLOSCRYW"
"F1BKCBBSAQD7"
"SLQARNKBFBBB"
"HPYDGGJDPM9L"
"T8Q1SR2VB8NK"
"C7OA8E4ZJ7A2"
"UP6KR0S71U03"
