id,alias,name,is_owned,award_date,budget,customer_id,parent_id,is_active,created_at
1,00000,PROPIOS DE GIGAWATT,1,1/1/2008,0,1,,1,4/8/2018 5:07:03
2,00000-FN,"PROPIOS DE GIGAWATT, FINANZAS",1,1/1/2008,0,1,1,1,9/2/2018 15:08:17
3,00000-RH,"PROPIOS DE GIGAWATT, RECURSOS HUMANOS",1,1/1/2008,0,1,1,1,9/2/2018 15:08:17
4,00000-LOG,"PROPIOS DE GIGAWATT, LOGÍSTICA Y ABASTECIMIENTO",1,1/1/2008,0,1,1,1,9/2/2018 15:08:17
5,00000-TI,"PROPIOS DE GIGAWATT, TECNOLOGÍAS DE LA INFORMACIÓN",1,1/1/2008,0,1,1,1,9/2/2018 15:08:17
6,00000-PP,"PROPIOS DE GIGAWATT, PRUEBAS Y PROTECCIÓN",1,1/1/2008,0,1,1,1,9/2/2018 15:08:17
7,00000-CON,"PROPIOS DE GIGAWATT, CONTABILIDAD",1,1/1/2008,0,1,1,1,9/2/2018 15:08:17
8,00000-ING,"PROPIOS DE GIGAWATT, INGENIERÍA",1,1/1/2008,0,1,1,1,9/2/2018 15:08:17
9,00000-MNT,"PROPIOS DE GIGAWATT, MANTENIMIENTO",1,1/1/2008,0,1,1,1,9/2/2018 15:08:17
10,00000-PYL,"PROPIOS DE GIGAWATT, PRESUPUESTOS Y LICITACIONES",1,1/1/2008,0,1,1,1,9/2/2018 15:08:17
11,00000-SSOMA,"PROPIOS DE GIGAWATT, SEGURIDAD",1,1/1/2008,0,1,1,1,9/2/2018 15:08:17
12,00000-GG,"PROPIOS DE GIGAWATT, GERENCIA GENERAL",1,1/1/2008,0,1,1,1,9/2/2018 15:08:17
13,00001,MEJORAMIENTO DEL SISTEMA DE ILUMINACIÓN DE S.E. SANTA ISABEL,0,1/1/2009,0,68,,1,07/8/2020 23:38:43
14,00002,ESTUDIO DE COORDINACIÓN DE PROTECCIONES UNIDAD EL PORVENIR,0,1/1/2009,0,68,,1,07/8/2020 23:38:43
15,00003,CALIBRACIÓN TRANSDUCTORES DE POTENCIA TG12,0,1/1/2009,0,68,,1,07/8/2020 23:38:43
16,00004,ESTUDIO DE COORDINACIÓN DE PROTECCIONES DE SISTEMA ELÉCTRICO DE REFINERÍA,0,1/1/2009,0,68,,1,07/8/2020 23:38:43
17,00005,ELABORACIÓN DE EXPEDIENTE TÉCNICO DE LÍNEA PRIMARIA 22.9 KV SANTA ISABEL - HUALLAMAYO,0,1/1/2009,0,68,,1,07/8/2020 23:38:43
18,00006,CONFIGURACIÓN Y PRUEBAS DE RELÉS DE REFINERÍA,0,1/1/2009,0,68,,1,07/8/2020 23:38:43
19,00007,SERVICIO DE EJECUCIÓN DE ACOMETIDA ELÉCTRICA DE EBC PAUCARTAMBO,0,1/1/2009,0,68,,1,07/8/2020 23:38:43
20,00008,SERVICIO DE EJECUCIÓN DE ACOMETIDA ELÉCTRICA DE EBC PICUSH,0,1/1/2009,0,68,,1,07/8/2020 23:38:43
21,00009,SERVICIO DE PRUEBA DE RELÉS TG11,0,1/1/2009,0,68,,1,07/8/2020 23:38:43
22,00010,SERVICIO DE EJECUCIÓN DE ACOMETIDA ELÉCTRICA DE EBC ACHO MEGO,0,1/1/2009,0,68,,1,07/8/2020 23:38:43
23,00011,INSTALACIÓN DE MEDIDORES DE ENERGÍA EN YUNCAN,0,1/1/2010,0,68,,1,07/8/2020 23:38:43
24,00012,SERVICIO DE INSTALACIÓN DE LETREROS DE LÍNEA L2266,0,1/1/2010,0,68,,1,07/8/2020 23:38:43
25,00013,SUMINISTRO MENOR Y MONTAJE DE CCTV,0,1/1/2010,0,68,,1,07/8/2020 23:38:43
26,00014,VENTA DE MATERIALES PARA ALMACÉN YUNCAN,0,1/1/2010,0,68,,1,07/8/2020 23:38:43
27,00015,CONSTRUCCIÓN DE DOS TORRETAS PARA CÁMARAS DECCTV EN PRESA HUALLAMAYO Y PRESA UCHUHUERTA,0,1/1/2010,0,68,,1,07/8/2020 23:38:43
28,00016,SERVICIO DE PRUEBAS FUNCIONALES RELÉS DE PROTECCIÓN S.E. CHILCA UNO,0,1/1/2010,0,68,,1,07/8/2020 23:38:43
29,00017,SERVICIO DE ESTUDIO DE OPERATIVIDAD POR INCREMENTO DE CARGA DE UNIDAD EL PORVENIR,0,1/1/2010,0,68,,1,07/8/2020 23:38:43
30,00018,AMPLIACIÓN SALA DE CONTROL SE MILPO - EL PORVENIR - PASCO,0,1/1/2010,0,68,,1,07/8/2020 23:38:43
31,00019,REEMPLAZO DE 25 RELÉS DE PROTECCIÓN EN EL SISTEMA DE MEDIA TENSIÓN DE S.E. BOTIFLACA - CUAJONE,0,1/1/2010,0,68,,1,07/8/2020 23:38:43
32,00020,REEMPLAZO DE ESTRUCTURA BIPOSTE Nº 29 EN LA LÍNEA DE 50KV PARAGSHA - MILPO,0,1/1/2010,0,68,,1,07/8/2020 23:38:43
33,00021,REEMPLAZO DE 27 MEDIDORES DE ENERGÍA EN CONCENTRADORA TOQUEPALA,0,1/1/2010,0,68,,1,07/8/2020 23:38:43
34,00022,SERVICIO DE PRUEBAS ELÉCTRICAS 03 RELÉS DE RECHAZO DE CARGA,0,1/1/2010,0,68,,1,07/8/2020 23:38:43
35,00023,ESTUDIO DE CALIDAD DE ENERGÍA EN EL PUNTO DE SUMINISTRO DE ENERGÍA PARA LA BOMBA SAN JUAN DE MILPO,0,1/1/2010,0,68,,1,07/8/2020 23:38:43
36,00024,ESTUDIO DE INGENIERÍA PARA LA REUBICACIÓN DE LÍNEAS ELÉCTRICAS EN MINA COBRIZA,0,1/1/2010,0,68,,1,07/8/2020 23:38:43
37,00025,SUPERVISIÓN DE MANTENIMIENTO DE GENERADOR 10 MVA DE SUEZ PANAMA. REALIZADO POR ABB,0,1/1/2010,0,68,,1,07/8/2020 23:38:43
38,00026,ELABORACIÓN DE BASE DE CONCRETO ARMADO PARA TRANSFORMADOR DE DISTRIBUCIÓN DE 3.5 MVA EN LA SE MILPO,0,1/1/2010,0,68,,1,07/8/2020 23:38:43
39,00027,ACTUALIZACIÓN DE ESTUDIO DE COORDINACIÓN DE PROTECCIÓN DE CIRCUITO MINA 13.8KV,0,1/1/2010,0,68,,1,07/8/2020 23:38:43
40,00028,SUMINISTRO Y MONTAJE DE BANDEJAS PORTACABLES EXTERNAS PARA GRAFOS AUXILIARES DE PLANTA CONCENTRADORA - EL PORVENIR,0,1/1/2010,0,68,,1,07/8/2020 23:38:43
41,00029,"EXPEDIENTE TÉCNICO DEL PROVECTO ""IMPLEMENTACIÓN DEL SISTEMA DE SEGURIDAD INTEGRAL - SEDE CENTRAL - UNH""",0,1/1/2011,0,68,,1,07/8/2020 23:38:43
42,00030,SUPERVISIÓN ADICIONAL DE MANTENIMIENTO DE GENERADOR 10 MVA DE SUEZ PANAMA. REALIZADO POR ABB,0,1/1/2011,0,68,,1,07/8/2020 23:38:43
43,00031,REEMPLAZO DE 14 RELÉS EN SISTEMA DE MEDIA TENSIÓN EN SE BOTIFLACA,0,1/1/2011,0,68,,1,07/8/2020 23:38:43
44,00032,TRASLADO DE LÍNEAS ELÉCTRICAS DE ALTA TENSIÓN EN LA UNIDAD DE PRODUCCIÓN.,0,1/1/2011,0,68,,1,07/8/2020 23:38:43
45,00033,REEMPLAZO DE 20 RELÉS EN SISTEMA DE MEDIA TENSIÓN EN SE MILL SITE,0,1/1/2011,0,68,,1,07/8/2020 23:38:43
46,00034,"ESTUDIO DE INGENIERÍA, ESTUDIOS COMPLEMENTARIOS Y ASESORAMIENTO PARA EL SUMINISTRO DE ENERGÍA DE LA MINA PACHAPAQUI DESDE EL SEIN",0,1/1/2011,0,68,,1,07/8/2020 23:38:43
47,00035,REEMPLAZO 4 RELÉS SE QUEBRADA HONDA,0,1/1/2011,0,68,,1,07/8/2020 23:38:43
48,00036,REEMPLAZO DE 01 RELÉS EN SISTEMA DE MEDIA TENSIÓN EN SE MILL SITE,0,1/1/2011,0,68,,1,07/8/2020 23:38:43
49,00037,REEMPLAZO DE 20 RELÉS Y 13 MEDIDORES EN SISTEMA DE MEDIA TENSIÓN DE SE TOTORAL,0,1/1/2011,0,68,,1,07/8/2020 23:38:43
50,00038,REEMPLAZO DE LOS RELÉS DE PROTECCIÓN DE C.H. HIDRO 1 Y C.H. HIDRO 2 EN CUAJONE. INCLUYE SUMINISTRO,0,1/1/2011,0,68,,1,07/8/2020 23:38:43
51,00039,INSTALACIÓN DE 05 MEDIDORES DE ENERGÍA EN SE TOTORAL,0,1/1/2011,0,68,,1,07/8/2020 23:38:43
52,00040,RETIRO DE 12 RELÉS DE LAS CELDAS DE MEDIA TENSIÓN DE SE TOTORAL,0,1/1/2011,0,68,,1,07/8/2020 23:38:43
53,00041,ADICIONALES - PROYECTO AMPLIACIÓN SALA DE CONTROL SE MILPO - EL PORVENIR - PASCO,0,1/1/2011,0,68,,1,07/8/2020 23:38:43
54,00042,SERVICIO GENERAL - PERSONAL TÉCNICO PARA TENDIDO DE CABLES EN PLANTA CONCENTRADORA,0,1/1/2011,0,68,,1,07/8/2020 23:38:43
55,00043,TRABAJOS COMPLEMENTARIOS EN CELDAS DE MEDIA TENSIÓN DE SE BOTIFLACA,0,1/1/2011,0,68,,1,07/8/2020 23:38:43
56,00044,ADICIONAL - APOYO PERSONAL TÉCNICO PARA TENDIDO DE CABLES EN PLANTA CONCENTRADORA,0,1/1/2011,0,68,,1,07/8/2020 23:38:43
57,00045,EVALUACIÓN DEL SISTEMA DE MALLA A TIERRA DE S.E. DERIVACIÓN Y S.E. CANDELARIA”.,0,1/1/2011,0,68,,1,07/8/2020 23:38:43
58,00046,SERVICIO DE PRUEBAS ELÉCTRICA A RELÉS ELECTRÓNICOS DE PROTECCIÓN PRUEBAS FUNCIONALES DE 04 RELÉS DE RECHAZO DE CARGA,0,1/1/2012,0,68,,1,07/8/2020 23:38:43
59,00047,DIGITACIÓN DE ESQUEMAS ELÉCTRICOS,0,1/1/2012,0,68,,1,07/8/2020 23:38:43
60,00048,CONEXIÓN DE SEÑALES DE INTERRUPTORES DE SUBESTACIÓN REFINERÍA S.E. REFINERÍA,0,1/1/2012,0,68,,1,07/8/2020 23:38:43
61,00049,ELABORACIÓN DEL ESTUDIO DE OPERATIVIDAD DEL CAMBIO DE CONEXIÓN DE T A PI SE ELECTROSUR ILO,0,1/1/2012,0,68,,1,07/8/2020 23:38:43
62,00050,CONFIGURACIÓN Y PRUEBA DE 14 RELÉS DE PROTECCIÓN DEL NUEVO TRANSFORMADOR DE 10MVA DE LA REFINERÍA ILO,0,1/1/2012,0,68,,1,07/8/2020 23:38:43
63,00051,PRUEBAS FUNCIONALES RELÉS DE PROTECCIÓN DEL GENERADOR TG12 - CT CHILCA UNO - DEPARTAMENTO DE MANTENIMIENTO,0,1/1/2012,0,68,,1,07/8/2020 23:38:43
64,00052,MEJORAMIENTO DE INFRAESTRUCTURAS DEL ALMACÉN PRINCIPAL DE G.W YICHANG &CIA. S.A - PRIMERA ETAPA,0,1/1/2012,0,68,,1,07/8/2020 23:38:43
65,00053,REEMPLAZO DE 22 MEDIDORES DE ENERGÍA ELECTROMECÁNICA POR MEDIDORES ION 8600,0,1/1/2012,0,68,,1,07/8/2020 23:38:43
66,00054,MEJORAMIENTO DE INFRAESTRUCTURAS DEL ALMACÉN PRINCIPAL DE G.W YICHANG &CIA. S.A - TERCERA ETAPA,0,1/1/2012,0,68,,1,07/8/2020 23:38:43
67,00055,SERVICIOS DE INSTALACIONES ELÉCTRICAS DIVERSAS,0,1/1/2012,0,68,,1,07/8/2020 23:38:43
68,00056,MEJORAMIENTO DE INFRAESTRUCTURAS DEL ALMACÉN PRINCIPAL DE G.W YICHANG &CIA. S.A - 2DA ETAPA,0,1/1/2012,0,68,,1,07/8/2020 23:38:43
69,00057,INSTALACIÓN DE BORNES DE PRUEBA Y TERMOMAGNETICOS PARA MEDIDORES EN SISTEMA DE MEDIA TENSIÓN,0,1/1/2012,0,68,,1,07/8/2020 23:38:43
70,00058,ACTUALIZACIÓN DE INFORMACIÓN SISTEMAS ELÉCTRICOS GIS,0,1/1/2012,0,68,,1,07/8/2020 23:38:43
71,00059,ELABORACIÓN DE INGENIERÍA DE DETALLE BATEAS -SANTA CATA SERVICIO DE ASESORÍA TÉCNICA E INGENIERÍA.,0,1/1/2012,0,68,,1,07/8/2020 23:38:43
72,00060,CAMBIO DE 09 RELÉS DE PROTECCIÓN SWITCH GEAR SMELTER,0,1/1/2012,0,68,,1,07/8/2020 23:38:43
73,00061,PRUEBAS Y MANTENIMIENTO EN SUBESTACIÓN ELÉCTRICA DERIVACIÓN PARAGSHA,0,1/1/2012,0,68,,1,07/8/2020 23:38:43
74,00062,ELABORACIÓN DEL ESTUDIO DE COORDINACIÓN DE PROTECCIÓN DEL SISTEMA ELÉCTRICO DE SIMSA 44/35/10/6 KV,0,1/1/2012,0,68,,1,07/8/2020 23:38:43
75,00063,OBRAS CIVILES CAPTACIÓN DE AGUA SERVICIO DE CONSTRUCCIÓN DE TAPA DE CÁMARA DE DEMASÍA.,0,1/1/2012,0,68,,1,07/8/2020 23:38:43
76,00064,ACTUALIZACIÓN DE INFORMACIÓN SISTEMAS ELÉCTRICOS GIS,0,1/1/2012,0,68,,1,07/8/2020 23:38:43
77,00065,"MANTENIMIENTO Y CALIBRACIÓN DE RELÉS DE PROTECCIÓN, MANTENIMIENTO INTERRUPTORES DE MEDIA TENSIÓN",0,1/1/2012,0,68,,1,07/8/2020 23:38:43
78,00066,CONSTRUCCIÓN DE POZAS ESTANQUE ANTIDERRAME,0,1/1/2012,0,68,,1,07/8/2020 23:38:43
79,00067,"EVALUACIÓN DE OPERATIVIDAD, CONFIGURACIÓN Y PRUEBAS DE 11 RELÉS DE FRECUENCIA.",0,1/1/2012,0,68,,1,07/8/2020 23:38:43
80,00068,ALIMENTACIÓN AUXILIAR PARA MOTOR DE VENTILADOR DE 300000 CFM - NIVEL 70 MACHAGUAY,0,1/1/2012,0,68,,1,07/8/2020 23:38:43
81,00069,PROYECTO PARA EL CAMBIO DE POSTERIAS Y LÍNEAS ELÉCTRICAS DE 10 KV,0,1/1/2012,0,68,,1,07/8/2020 23:38:43
82,00070,ESTUDIO DEFINITIVOS DE INGENIERÍA A NIVEL DE EJECUCIÓN DE OBRAS,0,1/1/2012,0,68,,1,07/8/2020 23:38:43
83,00071,SERVICIO DE INSPECCIÓN LT 220KV L - 2266 SANTA ISABEL,0,1/1/2012,0,68,,1,07/8/2020 23:38:43
84,00072,"SERVICIO DE REEMPLAZO DE 08 RELÉS DE RECHAZO DE CARGA, CONFIGURACIÓN Y PRUEBAS DE FUNCIONES DE UMBRAL Y DERIVADA DE FRECUENCIA",0,1/1/2012,0,68,,1,07/8/2020 23:38:43
85,00073,SERVICIOS DE PRUEBAS ELÉCTRICAS 2 RELÉS ELECTRÓNICOS DE PROTECCIÓN,0,1/1/2012,0,68,,1,07/8/2020 23:38:43
86,00074,SERVICIOS DE PRUEBAS ELÉCTRICAS 6 RELÉS ELECTRÓNICOS DE PROTECCIÓN,0,1/1/2012,0,68,,1,07/8/2020 23:38:43
87,00075,ELABORACIÓN DE ESTUDIO DE COORDINACIÓN DE PROTECCIONES DEL SISTEMA DE DISTRIBUCIÓN EN 22.9KV DEL PSE SAN FRANCISCO - AYACUCHO,0,1/1/2012,0,68,,1,07/8/2020 23:38:43
88,00076,ACTUALIZACIÓN DE OBRAS NUEVAS EN EL GIS,0,1/1/2012,0,68,,1,07/8/2020 23:38:43
89,00077,ESTUDIO DE COORDINACIÓN DE PROTECCIÓN DEL SISTEMA ELÉCTRICO S. M. EL BROCAL S.A.A. DESDE FUENTES DE ALIMENTACIÓN HASTA BARRAS DE TRANSFORMADORES EN SUBESTACIONES PRINCIPALES I ETAPA.,0,1/1/2013,0,68,,1,07/8/2020 23:38:43
90,00078,DISTRIBUCIÓN DE ENERGÍA MINA COBRIZA,0,1/1/2013,0,68,,1,07/8/2020 23:38:43
91,00079,LÍNEA PRIMARIA 15-22.9KV S.E. CAYLLOMA - S.E. CASA DE FUERZA BATEAS Y OBRAS CIVILES SUBESTACIONES CAYLLOMA Y CASA DE FUERZA BATEAS,0,1/1/2013,0,68,,1,07/8/2020 23:38:43
92,00080,REEMPLAZO DE 22 RELÉS DE PROTECCIONES DEL SISTEMA DE MEDIA TENSIÓN DE FUNDICIÓN,0,1/1/2013,0,68,,1,07/8/2020 23:38:43
93,00081,ELABORACIÓN DE INGENIERÍA DE DETALLES,0,1/1/2013,0,68,,1,07/8/2020 23:38:43
94,00082,ELABORACIÓN DE ESTUDIOS DE INGENIERÍA A NIVEL DE EJECUCIÓN DE OBRA PARA A AMPLIACIÓN DE LA SUBESTACIÓN HUACA DEL SOL Y LT ASOCIADA EN HIDRANDINA S.A.,0,1/1/2013,0,68,,1,07/8/2020 23:38:43
95,00083,ELABORACIÓN DE ESTUDIOS DE INGENIERÍA A NIVEL DE EJECUCIÓN DE OBRA PARA A AMPLIACIÓN DE LA SUBESTACIÓN TRUJILLO SUR Y L.T ASOCIADA HIDRANDINA SA,0,1/1/2013,0,68,,1,07/8/2020 23:38:43
96,00084,IMPLEMENTACIÓN DE SISTEMA DE PROTECCIÓN 10 KV EN SE SAN VICENTE IV,0,1/1/2013,0,68,,1,07/8/2020 23:38:43
97,00085,IMPLEMENTACIÓN DE SISTEMA DE PROTECCIÓN 35 KV,0,1/1/2013,0,68,,1,07/8/2020 23:38:43
98,00086,CONFIGURACIÓN Y PRUEBAS DE 13 RELÉS CAMBIO DE CONFIGURACIÓN DE T A PI DE LA SE ELECTROSUR.,0,1/1/2013,0,68,,1,07/8/2020 23:38:43
99,00087,ESTUDIO INGENIERÍA PARA LA ALIMENTACIÓN ELÉCTRICA DEL PROYECTO MINERO OLLACHEA,0,1/1/2013,0,68,,1,07/8/2020 23:38:43
100,00088,ACTUALIZACIÓN DE OBRAS NUEVAS EN EL GIS,0,1/1/2013,0,68,,1,07/8/2020 23:38:43
101,00089,ELABORACIÓN DE ESTUDIO DE INGENIERÍA A NIVEL DE EJECUCIÓN DE OBRA PARA LA AMPLIACIÓN DE LA SUBESTACIÓN EL PORVENIR EN HIDRANDINA SA,0,1/1/2013,0,68,,1,07/8/2020 23:38:43
102,00090,ELABORACIÓN DE ESTUDIO A NIVEL DE EJECUCIÓN DE LÍNEA DE TRANSMISIÓN 34.5KV PARA MINA 14,0,1/1/2013,0,68,,1,07/8/2020 23:38:43
103,00091,SERVICIO DE MANTENIMIENTO DE EQUIPOS Y POSTES SED N°15,0,1/1/2013,0,68,,1,07/8/2020 23:38:43
104,00092,ELABORACIÓN DE ESTUDIO AISLAMIENTO DEL SISTEMA DE DISTRIBUCIÓN 33KV POZUZO P .B,0,1/1/2013,0,68,,1,07/8/2020 23:38:43
105,00093,SUMINISTRO Y MONTAJE DE TABLERO EN LA SUBESTACIÓN ELECTROSUR,0,1/1/2013,0,68,,1,07/8/2020 23:38:43
106,00094,SERVICIO ESTANDARIZACIÓN SED´S INTERIOR MINA,0,1/1/2013,0,68,,1,07/8/2020 23:38:43
107,00095,SEGUNDA ETAPA DE REMPLAZO DE POSTES Y LÍNEAS ELÉCTRICAS EN 10KV EN LA UNIDAD DE PRODUCCIÓN DE COBRIZA.,0,1/1/2013,0,68,,1,07/8/2020 23:38:43
108,00096,ELABORACIÓN DE ESTUDIOS DE INGENIERÍA A NIVEL DE EJECUCIÓN DE OBRA PARA A AMPLIACIÓN DE LA SUBESTACIÓN CASMA EN HIDRANDINA,0,1/1/2013,0,68,,1,07/8/2020 23:38:43
109,00097,INSTALACIÓN Y CONFIGURACIÓN Y PRUEBAS DE 07 RELÉS SEL 710,0,1/1/2013,0,68,,1,07/8/2020 23:38:43
110,00098,INSTALACIÓN DE 12 MEDIDORES ION 8500,0,1/1/2013,0,68,,1,07/8/2020 23:38:43
111,00099,EJECUCIÓN OBRA LÍNEA DE TRANSMISIÓN 34.5KV 2.2 KM,0,1/1/2013,0,68,,1,07/8/2020 23:38:43
112,00100,REUBICACIÓN DE TRANSFORMADOR DE POTENCIAL DE BARRA 2 A BARRA 1 DE 13.8 KV EN S.E V.BOTIFLACA CUAJONE,0,1/1/2013,0,68,,1,07/8/2020 23:38:43
113,00101,SERVICIO DE LEVANTAMIENTO DE OBSERVACIONES EN LA LÍNEA 2266 YUCAN,0,1/1/2013,0,68,,1,07/8/2020 23:38:43
114,00102,INSTALACIÓN LÍNEA DE MALLA A TIERRA,0,1/1/2013,0,68,,1,07/8/2020 23:38:43
115,00103,ESTUDIO DE COORDINACIÓN DE PROTECCIONES Y ARRANQUE DE MOTORES DEL SISTEMA DE BOMBEO DE LA PRESA DE RELAVES QUEBRADA HONDA TOQUEPALA,0,1/1/2013,0,68,,1,07/8/2020 23:38:43
116,00104,EVALUACIÓN Y DIAGNOSTICO DEL SISTEMA ELÉCTRICO MT 10.5 KV 4.16 KV MINA MARCANPUNTA NORTE,0,1/1/2013,0,68,,1,07/8/2020 23:38:43
117,00105,SERVICIO DE INTERCONEXIÓN OBRAS ELÉCTRICAS CIVILES PARA SE 8MVA 34.5/7.2 KV,0,1/1/2013,0,68,,1,07/8/2020 23:38:43
118,00106,SERVICIO DE INSTALACIÓN DE 02 TRANSFORMADORES DE 700 KVA EN SE N°15 DE NIVEL 5 1/2 ANIMAS,0,1/1/2013,0,68,,1,07/8/2020 23:38:43
119,00107,"ELABORACIÓN DE ESTUDIO DE INGENIERÍA BÁSICA DEL PROYECTO AMPLIACIÓN DEL POTENCIA DE LA SUBESTACIÓN DE TRANSFORMACIÓN DE IQUITOS, DISTRITO DE IQUITOS, PROVINCIA DE MAYNAS, REGIÓN LORETO",0,1/1/2013,0,68,,1,07/8/2020 23:38:43
120,00108,SERVICIO DE REPOTENCIACIÓN DE LÍNEAS DE TRANSMISIÓN SHOUGANG 34.5 KV 34 KM,0,1/1/2013,0,68,,1,07/8/2020 23:38:43
121,00109,SERVICIO ESTANDARIZACIÓN RELLENO HIDRÁULICA NV 5 ANINA,0,1/1/2014,0,68,,1,07/8/2020 23:38:43
122,00110,ELABORACIÓN DE INGENIERÍA DE DETALLE ELECTROMECÁNICA Y COMUNICACIONES,0,1/1/2014,0,68,,1,07/8/2020 23:38:43
123,00111,ELABORACIÓN DE INGENIERÍA DE DETALLE DE OBRA CIVIL,0,1/1/2014,0,68,,1,07/8/2020 23:38:43
124,00112,"ELABORACIÓN DEL ESTUDIO DE INGENIERÍA BÁSICA DEL PROYECTO ,AMPLIACIÓN DE POTENCIA DE LA SUBESTACIÓN DE TRANSFORMACIÓN DE SANTA ROSA, DISTRITO DE BELEN, PROVINCIA DE MAYNAS, REGIÓN LORETO",0,1/1/2014,0,68,,1,07/8/2020 23:38:43
125,00113,SERVICIO DE MANTENIMIENTO LÍNEA PRIMARIA 15KV CASA FUERZA,0,1/1/2014,0,68,,1,07/8/2020 23:38:43
126,00114,ELABORACIÓN DE INGENIERÍA DE DETALLE PARA LA AMPLIACIÓN DE LA SUBESTACIÓN LA VIÑA DE 5 MVA A 14MVA 60/22.9/10 KV,0,1/1/2014,0,68,,1,07/8/2020 23:38:43
127,00115,MEDIDA DE RESISTIVIDAD DE TERRENO DE PROYECTO Y DE HIDROELÉCTRICO CERRO DEL ÁGUILA,0,1/1/2014,0,68,,1,07/8/2020 23:38:43
128,00116,SERVICIO DE CAMBIO DE RELÉS UPGRADE PLC MC,0,1/1/2014,0,68,,1,07/8/2020 23:38:43
129,00117,"IMPLEMENTACIÓN DE PARARRAYOS, IMPLEMENTACIÓN Y MEJORAMIENTO DE SISTEMAS PAT, PARA REDUCCIÓN DE INTERRUPCIONES DE SUMINISTROS ELÉCTRICOS POR DESCARGAS ATMOSFÉRICAS.",0,1/1/2014,0,68,,1,07/8/2020 23:38:43
130,00118,"SUMINISTRO, MONTAJE, CABLEADO, PRUEBAS Y PUESTA EN SERVICIO RELÉ DE PROTECCIÓN DIFERENCIAL (87T). TRANSFORMADOR DE POTENCIA 4/5 MVA 50/10.5 KV SE SMELTER.",0,1/1/2014,0,68,,1,07/8/2020 23:38:43
131,00119,POR PRUEBAS ELÉCTRICAS DE ALQUILER DE EQUIPOS DE PRUEBAS OMICROM,0,1/1/2014,0,68,,1,07/8/2020 23:38:43
132,00120,"SERVICIO DE DESMONTAJE DE LÍNEAS DE 50 KV, EN LAS INSTALACIONES DE MINERA CHINALCO PERÚ S.A.",0,1/1/2014,0,68,,1,07/8/2020 23:38:43
133,00121,SERVICIO DE SUPERVISIÓN DE OBRAS ELECTROMECÁNICAS Y CIVIL DE LA AMPLIACIÓN DE LA S.E. SELENE,0,1/1/2014,0,68,,1,07/8/2020 23:38:43
134,00122,SERVICIO DE ELABORACIÓN DE ESTUDIO DEL ANILLO DE DISTRIBUCIÓN EN 7.2/4.16 KV Y ANÁLISIS LT 34.5 KV DE CARGA ACTUAL Y FUTURA.,0,1/1/2014,0,68,,1,07/8/2020 23:38:43
135,00123,ESTUDIO DE INGENIERÍA DEFINITIVA IMPLEMENTACIÓN DE 02 TRANSFORMADORES DE POTENCIA SE HUANCAYO ESTE Y PARQUE INDUSTRIAL CON SU LÍNEA EN 60 KV DE INTERCONEXIÓN PARA CIERRE EN ANILLO,0,1/1/2014,0,68,,1,07/8/2020 23:38:43
136,00124,SERVICIO PRUEBA DE RELÉS DE PROTECCIÓN ELÉCTRICA,0,1/1/2014,0,68,,1,07/8/2020 23:38:43
137,00125,ACTUALIZACIÓN DE OBRAS NUEVAS EN EL GIS,0,1/1/2014,0,68,,1,07/8/2020 23:38:43
138,00126,SERVICIO DE CONFIGURACIÓN Y PRUEBAS DE RELÉS ERAMCF 2014,0,1/1/2014,0,68,,1,07/8/2020 23:38:43
139,00127,SERVICIO POR INSTALACIONES ELÉCTRICAS TALLERES-ALIMENTACIÓN PRINCIPAL,0,1/1/2014,0,68,,1,07/8/2020 23:38:43
140,00128,SERVICIO DE INTERCONEXIÓN LT 34.5KV MODIFICACIÓN MONTAJE REQUERIDO POR 5HP- ADICIONAL REPOTENCIACIÓN,0,1/1/2014,0,68,,1,07/8/2020 23:38:43
141,00129,SERVICIO DE ESTUDIO DE ARRANQUE DE MOTORES (PALAS Y PERFORADORAS) Y DIMESIONAMIENTOS DE BANCO DE CONDENSADORES.,0,1/1/2014,0,68,,1,07/8/2020 23:38:43
142,00130,ESTUDIO DE COORDINACIÓN DE PROTECCIÓN DE SISTEMA ELÉCTRICO SHOUGANG DESDE SEE 8MVA HASTA CARGA FINAL - AJUSTE Y PRUEBAS DE RELÉS DE PROTECCIÓN DE SEE SWITH HOUSE.,0,1/1/2014,0,68,,1,07/8/2020 23:38:43
143,00131,"SERVICIO DE PRUEBAS DE RELÉS PROTECCIÓN GENERADORES, GRAFOS, LÍNEAS DE TRANSMISIÓN Y PRUEBAS DE PROTECCIONES PROPIAS DE GRAFOS",0,1/1/2014,0,68,,1,07/8/2020 23:38:43
144,00132,ESTUDIO PARA INSTALAR TRANSFORMADORES EN PARALELO,0,1/1/2014,0,68,,1,07/8/2020 23:38:43
145,00133,CALIBRACIÓN Y CONFIGURACIÓN CON SUS RESPECTIVOS PROTOCOLOS DE PRUEBAS RELE DE RECHAZO DE CARGA POR MINIMA FRECUENCIA.,0,1/1/2014,0,68,,1,07/8/2020 23:38:43
146,00134,"EVALUACIÓN, PRUEBAS DE RELÉ DE PROTECCIÓN ABB TPU 2000R TRANSFORMADOR 4/5 MVA, 50/10.5KV SE SMELTER",0,1/1/2014,0,68,,1,07/8/2020 23:38:43
147,00135,SERVICIO DE MANTENIMIENTO PREVENTIVO DE SUBESTACIONES DE POTENCIA: DERIVACIÓN PARAGSHA Y MILPO DE LA U. M. EL PORVENIR,0,1/1/2014,0,68,,1,07/8/2020 23:38:43
148,00136,SERVICIO DE PRUEBA DE RELÉS DE PROTECCIÓN DEFERENCIAL DE CABLE DE UNIDADES,0,1/1/2014,0,68,,1,07/8/2020 23:38:43
149,00137,"SERVICIO DE MANTENIMIENTO PREVENTIVO SWITCHGEARS, INTERRUPTORES MT Y RELÉS DE PROTECCIÓN FUNDICIÓN",0,1/1/2014,0,68,,1,07/8/2020 23:38:43
150,00138,SERVICIO-SITE LA OROYA: REPARACIÓN DE SISTEMA DE PUESTA A TIERRA,0,1/1/2014,0,68,,1,07/8/2020 23:38:43
151,00139,SERVICIO-SITE SICAYA: REPARACIÓN DE SISTEMA DE PUESTA A TIERRA,0,1/1/2014,0,68,,1,07/8/2020 23:38:43
152,00140,SERVICIO-SITE LA MERCED: REPARACIÓN DE SISTEMA DE PUESTA A TIERRA,0,1/1/2014,0,68,,1,07/8/2020 23:38:43
153,00141,SERVICIO-SITE CHUPACA: REPARACIÓN DE SISTEMA DE PUESTA A TIERRA,0,1/1/2014,0,68,,1,07/8/2020 23:38:43
154,00142,SERVICIO-SITE SAN RAMÓN: REPARACIÓN DE SISTEMA DE PUESTA A TIERRA,0,1/1/2014,0,68,,1,07/8/2020 23:38:43
155,00143,SERVICIO-SITE INGENIO: REPARACIÓN DE SISTEMA DE PUESTA A TIERRA,0,1/1/2014,0,68,,1,07/8/2020 23:38:43
156,00144,SERVICIO-SITE HUALHUAS: REPARACIÓN DE SISTEMA DE PUESTA A TIERRA,0,1/1/2014,0,68,,1,07/8/2020 23:38:43
157,00145,SERVICIO-SITE HUAMALI: REPARACIÓN DE SISTEMA DE PUESTA A TIERRA,0,1/1/2014,0,68,,1,07/8/2020 23:38:43
158,00146,INSTALACIÓN DE 02 RELÉS SEL 311L EN SE MILLSITE Y SE TOQUEPALA,0,1/1/2014,0,68,,1,07/8/2020 23:38:43
159,00147,REUBICACIÓN DE LÍNEAS DE 23 KV PARA SUB ESTACIÓN 251-US-002 VARIANTE DE LÍNEA DE 23 KV DEL GRIFO DE PLANTA DE MINA TOROMOCHO,0,1/1/2014,0,68,,1,07/8/2020 23:38:43
160,00148,SERVICIO DE INSPECCIÓN Y MEDICIONES DE LA LÍNEA 2266 DE YUNCAN,0,1/1/2014,0,68,,1,07/8/2020 23:38:43
161,00149,ELABORACIÓN DE INGENIERÍA DE DETALLE DE OBRA PASCO,0,1/1/2014,0,68,,1,07/8/2020 23:38:43
162,00150,SOPORTE TÉCNICO DE SECUENCIAS DE FASES DEL TRANSFORMADOR,0,1/1/2014,0,68,,1,07/8/2020 23:38:43
163,00151,"MONTAJE, INSTALACIONES 2 RELÉS SEL 351A Y 710.",0,1/1/2014,0,68,,1,07/8/2020 23:38:43
164,00152,SUMINISTRO DE EQUIPOS Y MATERIALES PARA LA EJECUCIÓN DE LA ALIMENTACIÓN ELÉCTRICA DEL PROYECTO MINERO OLLACHEA,0,1/1/2014,0,68,,1,07/8/2020 23:38:43
165,00153,INGENIERÍA DE DETALLE PARA LA ALIMENTACIÓN ELÉCTRICA DEL PROYECTO MINERO OLLACHEA,0,1/1/2014,0,68,,1,07/8/2020 23:38:43
166,00154,ADENDA Nº02-ESTUDIO HUACA DEL SOL,0,1/1/2014,0,68,,1,07/8/2020 23:38:43
167,00155,ESTUDIO DE LA COORDINACIÓN DE PROTECCIÓN,0,1/1/2014,0,68,,1,07/8/2020 23:38:43
168,00156,HABILITACIÓN DE CAMINOS ACCESO E INSTALACIÓN AGUA POTABLE SET SAN FRANCISCO,0,1/1/2014,0,68,,1,07/8/2020 23:38:43
169,00157,ADENDA Nº 01 SERVICIO DE SUPERVISIÓN DE OBRAS ELECTROMECÁNICAS Y CIVIL DE LA AMPLIACIÓN DE LA S.E. SELENE,0,1/1/2014,0,68,,1,07/8/2020 23:38:43
170,00158,FABRICACIÓN E INSTALACIÓN DE BUZONES DE CONCRETO,0,1/1/2014,0,68,,1,07/8/2020 23:38:43
171,00159,EFECTUAR PRUEBAS EN INTERRUPTORES,0,1/1/2014,0,68,,1,07/8/2020 23:38:43
172,00160,MANTENIMIENTO DE LÍNEAS DE MEDIA TENSIÓN SITE LA MERCED JUNÍN,0,1/1/2014,0,68,,1,07/8/2020 23:38:43
173,00161,CONSTRUCCIÓN SALA DE REUNIONES EN ELECTROCENTRO SA,0,1/1/2014,0,68,,1,07/8/2020 23:38:43
174,00162,"SERVICIO DE TENDIDO DE LÍNEA, TRABAJOS ELÉCTRICOS EN MEDIA TENSIÓN (REDES AÉREAS ELÉCTRICAS)",0,1/1/2014,0,68,,1,07/8/2020 23:38:43
175,00163,"INGENIERÍA DE DETALLE FINAL Y LA CONSTRUCCIÓN DE UN SET EN 4.16KV, 1.5MVA ENTRE LA SE 2S1A Y EL SECTOR PLATANAL",0,1/1/2014,0,68,,1,07/8/2020 23:38:43
176,00164,MANTENIMIENTO SET SANTIAGO DE CAO Y CASAGRANDE,0,1/1/2014,0,68,,1,07/8/2020 23:38:43
177,00165,INSTALACIÓN DE 15 MEDIDORES DE ENERGÍA (ION) EN LOAD CENTERS DE PLANTA CONCENTRADORA,0,1/1/2015,0,68,,1,07/8/2020 23:38:43
178,00166,SERVICIO DE ELABORACIÓN DE EXPEDIENTE TÉCNICO DE LOS INTERRUPTORES DE 220 KV DE LA SUBESTACIÓN CAMPO ARMIÑO Y PATIO DE LLAVES DE C.H. SANTIAGO ANTÚNEZ DE MAYOLO.,0,1/1/2015,0,68,,1,07/8/2020 23:38:43
179,00167,"SERVICIO DE ELABORACIÓN DEL ESTUDIO NIVEL PERFIL Y ESTUDIO DEFINITIVO DEL PROYECTO AMPLIACIÓN DE CAPACIDAD DE LA LÍNEA 33KV CHALLAPAMPA- CONO NORTE Y SSEE ASOCIADAS, DISTRITO DE CERRO COLORADO- AREQUIPA",0,1/1/2015,0,68,,1,07/8/2020 23:38:43
180,00168,"SERVICIO DE ELABORACIÓN DE ESTUDIO A NIVEL DE PERFIL Y ESTUDIO DEFINITIVO DEL PROYECTO: AMPLIACIÓN DE LA SET CONVERTIDOR- CHILINA 138/33 KV Y 33/10 KV, ALTO SELVA ALEGRE, AREQUIPA",0,1/1/2015,0,68,,1,07/8/2020 23:38:43
181,00169,"PRUEBAS DE 11 IED DE PROTECCIÓN, FUNCIÓN 81U 81R.",0,1/1/2015,0,68,,1,07/8/2020 23:38:43
182,00170,PRUEBA DE 06 RELÉS DE PROTECCIÓN RACG2015,0,1/1/2015,0,68,,1,07/8/2020 23:38:43
183,00171,"PRUEBAS DE RELÉS DE MOTOR, SOBRECORRIENTE E INTERRUPTORES",0,1/1/2015,0,68,,1,07/8/2020 23:38:43
184,00172,INSPECCIÓN TÉCNICA GENERAL DE LA LÍNEA PRIMARIA EN MEDIA TENSIÓN 22.9 KV TRAMO HUARI CONTONGA,0,1/1/2015,0,68,,1,07/8/2020 23:38:43
185,00173,SERVICIO DE MANTENIMIENTO PREVENTIVO DE LA SET CHAO,0,1/1/2015,0,68,,1,07/8/2020 23:38:43
186,00174,"CALIBRACIÓN, COORDINACIÓN Y PROTECCIÓN DEL SISTEMA ELÉCTRICO DE MT - COBRIZA",0,1/1/2015,0,68,,1,07/8/2020 23:38:43
187,00175,ADICIONAL - ELABORACIÓN DEL EXPEDIENTE TÉCNICO DEL PROYECTO REMODELACIÓN SET CHALLAPAMPA 33 KV,0,1/1/2015,0,68,,1,07/8/2020 23:38:43
188,00176,SERVICIO DE INSTALACIÓN Y MONTAJE DE SUBESTACIÓN ELÉCTRICA EN INTERIOR MINA NIVEL 10 ANIMAS BP430,0,1/1/2015,0,68,,1,07/8/2020 23:38:43
189,00177,"SERVICIO DE SUPERVISIÓN DE LA ELABORACIÓN DE LOS ESTUDIOS DE INGENIERÍA DEFINITIVA Y EJECUCIÓN DE LA OBRA SUMINISTRO, TRASPORTE, MONTAJE ELECTROMECÁNICO, PRUEBAS Y PUESTAS EN SERVICIO DE EQUIPOS DE PROTECCIÓN Y MANIOBRA EN LOS SISTEMAS ELÉCTRICOS RURALES DE HUÁNUCO, PASCO, AYACUCHO, JUNÍN Y HUANCAVELICA",0,1/1/2015,0,68,,1,07/8/2020 23:38:43
190,00178,SERVICIO DE PROTOCOLO DE PRUEBAS DE 04 RELÉS DE PROTECCIÓN DE GENERADOR C.H. HUASAHUASI I Y HUASAHUASI II A TODO COSTO.,0,1/1/2015,0,68,,1,07/8/2020 23:38:43
191,00179,SERVICIO DE PRUEBAS DE 02 RELÉS DE PROTECCIÓN DE 02 GENERADORES C.H. SANTA CRUZ II A TODO COSTO.,0,1/1/2015,0,68,,1,07/8/2020 23:38:43
192,00180,"SERVICIO DE DESMONTAJE , ELABORACIÓN DE LA INGENIERÍA DE DETALLE, SUMINISTRO, PRUEBAS Y PUESTA EN SERVICIO DE UN NUEVO SISTEMA DE PROTECCIÓN DIFERENCIAL DE BARRAS DE 138 KV DE LA SE MOQUEGUA",0,1/1/2015,0,68,,1,07/8/2020 23:38:43
193,00181,ADENDA N1 ESTUDIO DE LA COORDINACIÓN DE PROTECCIÓN,0,1/1/2015,0,68,,1,07/8/2020 23:38:43
194,00182,"MANTENIMIENTO INTEGRAL EN PATIO DE LLAVES LT 33 Y LT 60 KV , PRUEBAS DE PROTECCIÓN Y EQUIPOS DE PATIO DE LLAVES LT33KV SE CHILCAYOC",0,1/1/2015,0,68,,1,07/8/2020 23:38:43
195,00183,SERVICIO ANUAL DE PRUEBAS FUNCIONALES DE RELÉS TG21 AÑO 2015 CT CHILCAUNO,0,1/1/2015,0,68,,1,07/8/2020 23:38:43
196,00184,"TRANSPORTE MONTAJE ELECTROMECÁNICO, PRUEBAS Y PUESTA EN SERVICIO DE LA MOFIFICACION DEL TRAMO E60 A E62 DE L.T. 44(60) KV CARPAPATA - CHANCHAMAYO PARA EL CUMPLIMIENTO DE LAS DMS",0,1/1/2015,0,68,,1,07/8/2020 23:38:43
197,00185,MANTENIMIENTO PREVENTIVO DE LA SET CHIMBOTE 2,0,1/1/2015,0,68,,1,07/8/2020 23:38:43
198,00186,ALQUILER DE EQUIPOS DE PRUEBAS,0,1/1/2015,0,68,,1,07/8/2020 23:38:43
199,00187,PRUEBA DE RELÉS PLANTA CONCENTRADORA,0,1/1/2015,0,68,,1,07/8/2020 23:38:43
200,00188,PRUEBA DE INTERRUPTORES CRÍTICOS DE LOS SGLS,0,1/1/2015,0,68,,1,07/8/2020 23:38:43
201,00189,ELABORACIÓN DE ESTUDIO DEFINITIVO DEL MEJORAMIENTO DEL NIVEL DE TENSIÓN EN LA SET CORACORA,0,1/1/2015,0,68,,1,07/8/2020 23:38:43
202,00190,SERVICIO DE MANTENIMIENTO DE LMT LIMA Y PROVINCIA PARA ENTEL PERÚ SA,0,1/1/2015,0,68,,1,07/8/2020 23:38:43
203,00191,SERVICIO DE INSTALACIÓN ELÉCTRICA EN INTERIOR MINA NIVEL 12,0,1/1/2015,0,68,,1,07/8/2020 23:38:43
204,00192,MANTENIMIENTO INTEGRAL DE PLANTA CONCENTRADORA Y PLANTA DE FILTRADO DEN PARADA DE PLANTA DEL 1ERO DE MAYO,0,1/1/2015,0,68,,1,07/8/2020 23:38:43
205,00193,"ELABORACIÓN DE ESTUDIO DE COORDINACIÓN DE PROTECCIÓN: RELÉ – RECLOSER – SECCIONAMIENTO CUT – OUT, PARA CONTINUIDAD Y CONFIABILIDAD DEL SISTEMA ELÉCTRICO DE CHIMBOTE (SANTA, CHIMBOTE, NUEVO CHIMBOTE, CASMA, NEPEÑA, SAN JACINTO)",0,1/1/2015,0,68,,1,07/8/2020 23:38:43
206,00194,SERVICIO CAMBIO DE RELÉ DE LA SE PARAGSHA,0,1/1/2015,0,68,,1,07/8/2020 23:38:43
207,00195,REPOSICIÓN DE LÍNEA DE 15KV DE VETA LA PLATA DAÑADO POR VOLQUETE DCR,0,1/1/2015,0,68,,1,07/8/2020 23:38:43
208,00196,ALQUILER DE EQUIPOS DE PRUEBAS DE RELÉS OMICROM CMC356,0,1/1/2015,0,68,,1,07/8/2020 23:38:43
209,00197,MANTENIMIENTO Y SUPERVISIÓN DE LINIERO 50KV,0,1/1/2015,0,68,,1,07/8/2020 23:38:43
210,00198,SERVICIO DE OPERACIÓN DE SUBESTACIONES DE POTENCIA Y CENTRALES DE GENERACIÓN TÉRMICA BAJO LA ADMINISTRACIÓN DE ELECTROCENTRO SA,0,1/1/2015,0,68,,1,07/8/2020 23:38:43
211,00199,ELABORACIÓN DEL ESTUDIO DE COORDINACIÓN DE AISLAMIENTO DEL SISTEMA DE DISTRIBUCIÓN PERTENECIENTE AL SISTEMA ELÉCTRICO TARMA RURAL Y JUNÍN,0,1/1/2015,0,68,,1,07/8/2020 23:38:43
212,00200,IMPLEMENTACIÓN DEL RECHAZO AUTOMÁTICO DE CARGA,0,1/1/2015,0,68,,1,07/8/2020 23:38:43
213,00201,MANTENIMIENTOS ELÉCTRICOS EN LA PLANTA CONCENTRADORA Y EN LA PLANTA FILTRADO UBICADAS DENTRO DE LAS INSTALACIONES DE UNIDAD MINERA,0,1/1/2015,0,68,,1,07/8/2020 23:38:43
214,00202,SUMINISTRO DE MANO DE OBRA CALIFICADA (ELECTRICISTAS INDUSTRIALES ) DEL 28 JUNIO AL 03 DE JULIO 2015,0,1/1/2015,0,68,,1,07/8/2020 23:38:43
215,00203,PRUEBA DE 24 RELÉS DE PROTECCIÓN DE SUBESTACIÓN,0,1/1/2015,0,68,,1,07/8/2020 23:38:43
216,00204,ALQUILER DE EQUIPO DE PRUEBAS DE RELÉS OMICROM CMC-356,0,1/1/2015,0,68,,1,07/8/2020 23:38:43
217,00205,"ESTUDIO DE LAS PROTECCIONES ELÉCTRICAS A LOS VARIADORES DE VELOCIDAD EN LAS ÁREAS 2100,2800 Y 3100 EN QUEBRADA ONDA - TOQUEPALA",0,1/1/2015,0,68,,1,07/8/2020 23:38:43
218,00206,ALQUILER DE EQUIPOS DE PRUEBAS,0,1/1/2015,0,68,,1,07/8/2020 23:38:43
219,00207,PRUEBA DE 40 RELÉS CUAJONE,0,1/1/2015,0,68,,1,07/8/2020 23:38:43
220,00208,"MANTENIMIENTO, PRUEBAS DE EQUIPOS EN PATIO DE LLAVES (60 KV) Y PRUEBAS DE RELÉS EN SUBESTACIÓN ANDAHUAYLAS MANTENIMIENTO DE CELDAS, TABLEROS EN SALA DE CONTROL (33KV) TRANSFORMADOR DE 3.5 MVA Y PRUEBAS DE RELÉS DE LA SUBESTACIÓN BOLÍVAR II",0,1/1/2015,0,68,,1,07/8/2020 23:38:43
221,00209,CATALINA HUANCA,0,1/1/2015,0,68,,1,07/8/2020 23:38:43
222,00210,EQUIPO DE PRUEBA DE INTEGRIDAD DE VACÍO VANGUARD VBT-80P,0,1/1/2015,0,68,,1,07/8/2020 23:38:43
223,00211,PROVISIÓN DE PERSONAL LINIERO PARA MANTENIMIENTO DE LÍNEA DE 50KV,0,1/1/2015,0,68,,1,07/8/2020 23:38:43
224,00212,"SERVICIO DE MANTENIMIENTO DEL SOFT STARTRER DE 150HP. DE LA BOMBA HIDROSTAL 125-400 -POZA N°3 Y SERVICIO DE MANTENIMIENTO DEL VARIADOR ARRANCADOR POWER FLEX 700 MEAH7PYO, ALIMENTACIÓN FILTRO CIDELCO 150HP",0,1/1/2015,0,68,,1,07/8/2020 23:38:43
225,00213,MANTENIMIENTO Y DIAGNÓSTICO DEL FUNCIONAMIENTO DEL BANCO DE CAPACITADORES 1050KVAR DE SALA DE CELDAS DE SSEE SAN GERÓNIMO,0,1/1/2015,0,68,,1,07/8/2020 23:38:43
226,00214,SERVICIO DE ELABORACIÓN DEL ESTUDIO DEFINITIVO PARA LA REMODELACIÓN DE LA BAHÍA 138KV DE LA SE MAJES,0,1/1/2015,0,68,,1,07/8/2020 23:38:43
227,00215,SERVICIO D MEDICIÓN DE RESISTIVIDAD DEL SISTEMA DE PUESTA A TIERRA (2 MALLAS CON 4 POZOS CADA UNA),0,1/1/2015,0,68,,1,07/8/2020 23:38:43
228,00216,"CONTRATACIÓN DE SERVICIO DE CONSULTORÍA PARA LA ELABORACIÓN DEL ESTUDIO DE PREINVERSIÓN A NIVELES DE PERFIL Y EXPEDIENTE TÉCNICO DEL PROYECTO: ELECTRIFICACIÓN DE LAS CUENCAS 17,18,20,21 Y DERIVACIONES, DISTRITO DE MAZAMARI, PROVINCIA DE SATIPO - JUNÍN",0,1/1/2015,0,68,,1,07/8/2020 23:38:43
229,00217,CURSO DE CAPACITACIÓN MERCADO ELÉCTRICO Y TARIFAS ELÉCTRICAS,0,1/1/2015,0,68,,1,07/8/2020 23:38:43
230,00218,PRUEBAS DE RELÉ DE PROTECCIÓN Y REEMPLAZO DE BOBINA DE DISPARO INTERRUPTOR EN 33KV SE CHILCAYOC,0,1/1/2015,0,68,,1,07/8/2020 23:38:43
231,00219,"ESTUDIO DE COORDINACIÓN DE PROTECCIONES, PRUEBAS ELÉCTRICAS DE RELÉS DE PROTECCIÓN Y ESTUDIO DE ARRANQUE DE MOTORES - TOQUEPALA",0,1/1/2015,0,68,,1,07/8/2020 23:38:43
232,00220,UPGRADE SE MÓVIL N°06,0,1/1/2015,0,68,,1,07/8/2020 23:38:43
233,00221,"SUMINISTRO, TRANSPORTE, MONTAJE ELECTROMECÁNICO, PRUEBAS Y PUESTA EN SERVICIO DE LA ADECUACIÓN DEL SISTEMA DE ALUMBRADO PÚBLICO A NTCSE DE LOS SECTORES TÍPICOS 4 Y 5 - ELECTROCENTRO S. A.",0,1/1/2015,0,68,,1,07/8/2020 23:38:43
234,00222,"SUMINISTRO, TRANSPORTE, MONTAJE ELECTROMECÁNICO, PRUEBAS Y PUESTA EN SERVICIO PARA LA ACTIVACIÓN DE LOS SISTEMAS DE MEDICIÓN EN RADIALES, EN EL ÁMBITO DE ELECTROCENTRO S. A.",0,1/1/2015,0,68,,1,07/8/2020 23:38:43
235,00223,ESTUDIO DE CONFIABILIDAD DE LOS SISTEMAS ELÉCTRICOS DE DISTRIBUCIÓN DE ELECTROCENTRO S.A.,0,1/1/2015,0,68,,1,07/8/2020 23:38:43
236,00224,REPOSICIÓN DE TRAMO DE LÍNEA DE MEDIA TENSIÓN - SITE LA MERCED,0,1/1/2015,0,68,,1,07/8/2020 23:38:43
237,00225,SERVICIO DE LIMPIEZA DE FAJA DE SERVIDUMBRE SITE SAN RAMÓN,0,1/1/2015,0,68,,1,07/8/2020 23:38:43
238,00226,"ADICIONAL - SERVICIO DE ELABORACIÓN DEL ESTUDIO NIVEL PERFIL Y ESTUDIO DEFINITIVO DEL PROYECTO AMPLIACIÓN DE CAPACIDAD DE LA LÍNEA 33KV CHALLAPAMPA- CONO NORTE Y SSEE ASOCIADAS, DISTRITO DE CERRO COLORADO- AREQUIPA",0,1/1/2015,0,68,,1,07/8/2020 23:38:43
239,00227,"SUMINISTRO, TRANSPORTE, MONTAJE, PRUEBAS Y PUESTA EN SERVICIO DE LA OBRA DE MEJORAMIENTO Y AMPLIACIÓN DE REDES ELÉCTRICAS DEL C.P. SINCHAO GRANDE - EL TALLAN, PIURA",0,1/1/2015,0,68,,1,07/8/2020 23:38:43
240,00228,ALQUILER DE ESCALERAS EMBONABLES DE CUATRO CUERPOS FIBRA DE VIDRIO MAS UNA BASE,0,1/1/2015,0,68,,1,07/8/2020 23:38:43
241,00229,MONTAJE E INSTALACIÓN DE EQUIPOS DE COMUNICACIÓN TABLERO RITTAL,0,1/1/2015,0,68,,1,07/8/2020 23:38:43
242,00230,INSTALACIÓN CONFIGURACIÓN Y PRUEBA DE 03 RELÉS SEL 451-5 DE FRECUENCIA PARA EL ERACMF,0,1/1/2015,0,68,,1,07/8/2020 23:38:43
243,00231,ESTUDIO DE RESISTIVIDAD DE TERRENO Y DISEÑO DE MALLAS A TIERRA PARA LAS SUBESTACIONES DEL PROYECTO DEL SISTEMA DE BOMBAS DE 02 ETAPAS DE LA UNIDAD DE ANIMON,0,1/1/2015,0,68,,1,07/8/2020 23:38:43
244,00232,ALQUILER DE EQUIPOS DE PRUEBA Y PERSONAL ASIGNADO,0,1/1/2015,0,68,,1,07/8/2020 23:38:43
245,00233,"INSTALACIÓN DE BANDEJAS, TENDICO DE CONDUCTORES E INSTALACIONES ELECTRICAS EN PLANTA CONCENTRADORA",0,1/1/2015,0,68,,1,07/8/2020 23:38:43
246,00234,PRUEBAS DE RELÉS DE PROTECCIÓN DE MOLINOS,0,1/1/2015,0,68,,1,07/8/2020 23:38:43
247,00235,PRUEBAS DE INTERRUPTORES CRÍTICOS DE LOS SGLS,0,1/1/2015,0,68,,1,07/8/2020 23:38:43
248,00236,MANTENIMIENTO INTEGRAL DE INSTRUMENTOS Y SISTEMAS DE CONTROL,0,1/1/2015,0,68,,1,07/8/2020 23:38:43
249,00237,MANTENIMIENTO Y PRUEBA DE INTERRUPTORES DE MEDIA TENSIÓN EN REFINERÍA,0,1/1/2015,0,68,,1,07/8/2020 23:38:43
250,00238,PRUEBA DE 23 RELÉS DE PROTECCIÓN EN REFINERÍA,0,1/1/2015,0,68,,1,07/8/2020 23:38:43
251,00239,INSTALACIÓN RELE DIFERENCIAL SEL 487E - UNIDAD SELENE,0,1/1/2015,0,68,,1,07/8/2020 23:38:43
252,00240,MANTENIMIENTO EQUIPOS DE ARRANQUE PALTA CONCENTRADORA SAN JERONIMO INSPECCIÓN GENERAL Y PRUEBAS DE FUNCIONAMIENTO DE BALAZA RAMSEY DE LA FAJA 12,0,1/1/2015,0,68,,1,07/8/2020 23:38:43
253,00241,CATALINA HUANCA,0,1/1/2015,0,68,,1,07/8/2020 23:38:43
254,00242,"SUMINISTRO, TRANSPORTE, MONTAJE, PRUEBAS Y PUESTA EN SERVICIO DE LA SUBSANACIÓN DE LAS DEFICIENCIAS SEGURIDAD PÚBLICA SEGÚN PROCEDIMIENTO 228-2009-OS/CD, DE LAS INSTALACIONES DE DISTRIBUCIÓN ELÉCTRICA DE LOS SECTORES DE LA -UN CAJAMARCA-HIDRANDINA SA",0,1/1/2015,0,68,,1,07/8/2020 23:38:43
255,00243,CONTRATACIÓN DE SERVICIO DE MANTENIMIENTO PERIODICOS RUTA DEPARTAMENTAL PA 108 EMP PE (ABRA CANTARIZU)-EMP.PE 5N (PTE ENTAS)L=15+255KM,0,1/1/2015,0,68,,1,07/8/2020 23:38:43
256,00244,SERVICIO DE CREACIÓN DE ARCHIVOS COMTRADE DE LA LINEA DE TRANSMISIÓN 60KV GUADALUPE CHEPEN,0,1/1/2015,0,68,,1,07/8/2020 23:38:43
257,00245,"AMPLIACIÓN DE REDES DE DISTRIBUCIÓN RED PRIMARIA MT, SECUNDARIA BT Y AP PARA EL C.P. CHALACALÁ ALTA, URB. NUEVO HORIZONTE SECTOR B, AA.HH. ESTEBAN PAVLETICH III ETAPA, AA.HH. JUAN VELASCO ALVARADO - SULLANA Y AA.HH. JESUS DE NAZARETH - TAMBOGRANDE - PIURA",0,1/1/2015,0,68,,1,07/8/2020 23:38:43
258,00246,"CONTRATACIÓN DEL SERVICIO DE CONSULTORÍA PARA SUPERVISIÓN DE OBRA MEJORAMIENTO Y AMPLIACIÓN DEL SERVICIO DE ENERGÍA MEDIANTE EL SISTEMA DE REDES CONVENCIONALES DE LAS 37 LOCALIDADES DE LOS DISTRITOS DE SANTA ROSA, AYNA Y SAMUGARI DE LA PROVINCIA LA MAR - AYACUCHO",0,1/1/2015,0,68,,1,07/8/2020 23:38:43
259,00247,PRUEBAS DE CONFIGURACIÓN DE RELES DE PROTECCIÓN Y PRUEBAS A INTERRUPTOR Y CONTACTORES DE MEDIA TENSIÓN 4.16KV - QUEBRADA HONDA,0,1/1/2015,0,68,,1,07/8/2020 23:38:43
260,00248,REPARACIÓN Y MANTENIMIENTO DE OPERACIONES,0,1/1/2015,0,68,,1,07/8/2020 23:38:43
261,00249,"AJUSTE Y PRUEBAS FUNCIONALES DE 16 RLÉS DE PROTECCIÓN, FUNCIÓN 81U 81 R ESQUEMA DE RECHAZO DE CARGA POR MINIMA FRECUENCIA, PERIODO 2016",0,1/1/2015,0,68,,1,07/8/2020 23:38:43
262,00250,SERVICIO DE CONFIGURACIÓN Y PRUEBAS DE RELÉS ERACMF 2016,0,1/1/2015,0,68,,1,07/8/2020 23:38:43
263,00251,"MONTAJE, CONFIGURACIÓN Y PRUEBAS DE 04 RELES DE PROTECCIÓN MARCA G&E MODELOS F650 Y F850 PARA RECHAZO DE CARGA",0,1/1/2015,0,68,,1,07/8/2020 23:38:43
264,00252,MANTENIMIENTO ELÉCTRICO Y OPERACIÓN DE MINA PLANTA 2016-2017,0,1/1/2015,0,68,,1,07/8/2020 23:38:43
265,00253,SERVICIO DE SUPERVISIÓN DE OBRA REEMPLAZO DE TRANSFORMADOR DE 3MVA POR 6 MVA EN LA SUBESTACIÓN CAYLLOMA POR PARTE DE ET CALLALLI,0,1/1/2015,0,68,,1,07/8/2020 23:38:43
266,00254,"MEJORAMIENTO DEL JR. SUCRE, VÍA QUE COMUNICA A CHILCA, HUANCAN Y SAPALLANGA, TRAMO PUENTE TUNTUCHACA - JR. CENTENARIO, DISTRITO DE HUANCAN - HUANCAYO - JUNÍN",0,1/1/2015,0,68,,1,07/8/2020 23:38:43
267,00255,PRUEBA DE 04 RELÉS DE PROTECCIÓN DE RECHAZO DE CARGA (C/U CON 2 ETAPAS ACTIVAS)DEL ESQUEMA RACMF 2015 DE LA EMPRESA ADMINISTRADORA CHUNGAR SAC,0,1/1/2016,0,68,,1,07/8/2020 23:38:43
268,00256,SERVICIO DE ELABORACIÓN DE INGENIERÍA LT 33KV,0,1/1/2016,0,68,,1,07/8/2020 23:38:43
269,00257,ACTUALIZACIÓN DE OBRAS NUEVAS EN EL GIS,0,1/1/2016,0,68,,1,07/8/2020 23:38:43
270,00258,"SERVICIO DE IMPLEMENTACIÓN DEL ESQUEMA DE RECHAZO DE CARGA POR MINIMA FRECUENCIA, CALIBRACIÓN, PRUEBAS DE OPERATIVIDAD E INGENIRÍA DE CONEXIONADO EN SSE SAN JERONIMO PLANTA Y SSEE BOLIVAR MINA",0,1/1/2015,0,68,,1,07/8/2020 23:38:43
271,00259,SERVICIO DE PRUEBAS DE RELÉS DE PROTECCIÓN DE LA UNIDAD DE PRODUCCIÓN TUMBES,0,1/1/2016,0,68,,1,07/8/2020 23:38:43
272,00260,CONFIGURACIÓN Y VERIFICACIÓN DE AJUSTE DE RELÉ DE FRECUENCIA,0,1/1/2016,0,68,,1,07/8/2020 23:38:43
273,00261,SERVICIO DE OPERACIÓN Y CONTROL PERMANENTE DE LA SUB ESTACIÓN ANDAHUAYLAS Y SUB ESTACIÓN CHILCAYOCC,0,1/1/2016,0,68,,1,07/8/2020 23:38:43
274,00262,MANTENIMIENTO DE LÍNEA 60 KV SS.EE. ANDAHUAYLAS - SS.EE. CHILCAYOCC,0,1/1/2016,0,68,,1,07/8/2020 23:38:43
275,00263,MANTENIMIENTO DE LÍNEA 33 KV SS.EE. CHILCAYOCC - MINA,0,1/1/2016,0,68,,1,07/8/2020 23:38:43
276,00264,S UMINISTRO Y MONTAJE ELECTROMECANICO 440V - PLANTA RELAVERA.,0,1/1/2016,0,68,,1,07/8/2020 23:38:43
277,00265,"ESTUDIO DE REUBICACIÓN DE LINEA DE TRANSMISIÓN 60KV SEPI - CONCEPCIÓN, POR SEGURIDAD PÚBLICA Y SANEAMIENTO DE FAJA DE SERVIDUMBRES POR EL PROCEDIMIENTO N°264-2005-OS/CD DE OSINERGMIN",0,1/1/2016,0,68,,1,07/8/2020 23:38:43
278,00266,REEMPLAZO Y MONTAJE DE SECCIONADOR DE LINEA 33KV SUB ESTACIÓN SAN JERÓNIMO,0,1/1/2016,0,68,,1,07/8/2020 23:38:43
279,00267,"REEMPLAZO DE POSTES FISURADOS N°10 Y N° 15, REEMPLAZO DE AISLADORES POLIMERICOS Y MANTENIMIENTO DE FRANJA DE SERVIDUMBRE EN LA LINEA DE 33 Y 60 KV_MCH",0,1/1/2016,0,68,,1,07/8/2020 23:38:43
280,00268,VENTA DE ANILLOS PLANOS Y PRESION - GALAVANIZADO CALIENTE,0,1/1/2016,0,68,,1,07/8/2020 23:38:43
281,00269,SERVICIO ESPECIALIZADO DE PRUEBAS RELÉS TG11/TG12/TG21/TV CT CHILCA UNO 2016-2017,0,1/1/2016,0,68,,1,07/8/2020 23:38:43
282,00270,PRUEBA DE RELES DE PROTECCIÓN GENERADOR C.H. PURMACANA,0,1/1/2016,0,68,,1,07/8/2020 23:38:43
283,00271,MANTENIMIENTO PREVENTIVO MOTOR DE 200 HP-BOMBA VACIO ZN,0,1/1/2016,0,68,,1,07/8/2020 23:38:43
284,00272,REEMPLAZO DE POSTES FIGURADOS N°10 Y N° 15 DE AISLADORES POLIMERICOS,0,1/1/2016,0,68,,1,07/8/2020 23:38:43
285,00273,MONTAJE ELECTROMECANICO DE 02 RETENIDAS Y 02 POSTES DE MADERA PARA REFORZAMIENTO,0,1/1/2016,0,68,,1,07/8/2020 23:38:43
286,00274,ALQUILER DE EQUIPO DE PRUEBA DE INTEGRIDAD DE VACIO VANGUARD,0,1/1/2016,0,68,,1,07/8/2020 23:38:43
287,00275,SERVICIO ESPECIALIZADO DE PRUEBAS RELÉS TG11/TG12/TG21/TV CT CHILCA UNO 2016-2017,0,1/1/2016,0,68,,1,07/8/2020 23:38:43
288,00276,REHUBICACION DE POSTE Y ESTANDARIZACION DE CIRCUITOS - PLANTA DE TRATAMIENTO Y PLANTA CEMENTERA,0,1/1/2016,0,68,,1,07/8/2020 23:38:43
289,00277,INSTALACION DE BANDEJA DE PORTACABLES Y ESTANDARIZACION ELECTRICO-UYUCCASA,0,1/1/2016,0,68,,1,07/8/2020 23:38:43
290,00278,DESMONTAJE DE UN POSTE DE MADERA Y 01 POSTE METALICO EN DESHUSO PLANTA CONCENTRADORA,0,1/1/2016,0,68,,1,07/8/2020 23:38:43
291,00279,LEVANTAMIENTO DE OBSERVACIONES LT 33 Y 60KV CON CORTE DE SERVICIO DE LA LÍNEA (01 DE MAYO),0,1/1/2016,0,68,,1,07/8/2020 23:38:43
292,00280,SERVICIO DE SUPERVISIÓN DE ESTUDIO DEFINITIVO Y EJECUCIÓN DE OBRAS DE ELECTRIFICACIÓN RURAL FONER II DE 07 PROYECTOS,0,1/1/2016,0,68,,1,07/8/2020 23:38:43
293,00281,MANTENIMIENTO PREVENTIVO DE LA SUBESTACION CHILCYOC Y LINEA 33KV Y 60 KV (LINIERO) MARZO - ABRIL 2016,0,1/1/2016,0,68,,1,07/8/2020 23:38:43
294,00282,MONTAJE ELECTROMECANICO DE RELE DIFERENCIAL,0,1/1/2016,0,68,,1,07/8/2020 23:38:43
295,00283,SERVICIO DE ESTUDIO FLUJO DE POTENCIA Y COMPENSACION DE REACTIVOS DEL SISTEMA ELECTRICO QUEBRADA HONDA 13.8KV Y 4.16KV,0,1/1/2016,0,68,,1,07/8/2020 23:38:43
296,00284,ESTUDIO DE PROTECCION Y CORTOCIRCUITO DEL CIRCUITO ELECTRICO ASOCIADO AL NUEVO SISTEMA DE BOMBEO DEL NV-3850,0,1/1/2016,0,68,,1,07/8/2020 23:38:43
297,00285,ALIMENTACIÓN ENERGIA ELECTRICA TALLERES CORES,0,1/1/2016,0,68,,1,07/8/2020 23:38:43
298,00286,SUMINISTRO E INSTALACION DE CELDA DE CARGA PARA BALANZA,0,1/1/2016,0,68,,1,07/8/2020 23:38:43
299,00287,MANTENIMIENTO E INSTALACIÓN DE PUESTAS A TIERRA DE PLANTA CONCENTRADORA,0,1/1/2016,0,68,,1,07/8/2020 23:38:43
300,00288,"EXPEDIENTE TECNICO REUBICACION LP 22.9 KV, 1.2 KM, ZONA RELAVE AMANDA",0,1/1/2016,0,68,,1,07/8/2020 23:38:43
301,00289,"MONTAJE Y PUESTA EN SERVICIO TRAFOMIX MT, 22.9 KV SE UYUCCASA",0,1/1/2016,0,68,,1,07/8/2020 23:38:43
302,00290,REEMPLAZO DE ANILLO ROZAN MOTOR HELMKE 185 KV MOLINO COMESA,0,1/1/2016,0,68,,1,07/8/2020 23:38:43
303,00291,LEVANTAMIENTO INFORMACION E IMPLEMENTACION SCADA EN CENTRO DE CONTROL,0,1/1/2016,0,68,,1,07/8/2020 23:38:43
304,00292,"SUMINISTRO, TRANSPORTE, MONTAJE, DESMONTAJE, OBRAS CIVILES, PRUEBAS Y PUESTA EN SERVICIO DE LA AMPLIACIÓN DE LA S.E. TICAPAMPA, INCLUYE AMPLIACIÓN Y ADECUACIÓN DE BAHÍAS Y OBRAS CIVILES",0,1/1/2016,0,68,,1,07/8/2020 23:38:43
305,00293,"MANTENIMIENTO SUBESTACIÓN CHICRIN: MANTENIMIENTO DE SECCIONADORES DE BARRA, LÍNEA, LIMPIEZA DE AISLADORES DEL PATIO DE LLAVES, MANTENIMIENTO DE TRANSFORMADORES DE CORRIENTE, TENSIÓN, AJUSTES DE CONEXIONADOS Y MANTENIMIENTO DE SALA DE CONTROL",0,1/1/2016,0,68,,1,07/8/2020 23:38:43
306,00294,"MANTENIMIENTO MÓDULO DE SALIDA DE 50KV SUBESTACIÓN PARAGSHA I, TRABAJO CONSISTE EN MANTENIMIENTO DE SECCIONADORES DE LÍNEA, SECCIONADOR DE BARRA, SECCIONADOR A TIERRA, INTERRUPTOR PRINCIPAL Y PÓRTICO DE SALIDA PRUEBA DE RESISTENCIA DE CONTACTO DE INTERRUPTOR Y RIGIDEZ DIELÉCTRICA DEL ACEITE",0,1/1/2016,0,68,,1,07/8/2020 23:38:43
307,00295,SERVICIO DE EVALUACIÓN DE RIESGO POR DESCARGAS ATMOSFERICAS E INGENIERIA DEL SISTEMA DE PROTECCIÓN POR DESCARGA ATMOSFÉRICA,0,1/1/2016,0,68,,1,07/8/2020 23:38:43
308,00296,INSPECCIÓN PEDESTRE DE LÍNEA DE TRANSMISIÓN 220 KV Y 13.8 KV - CH QUITARACSA,0,1/1/2016,0,68,,1,07/8/2020 23:38:43
309,00297,"MMF2016 MANTENIMIENTO PREVENTIVO DE SWITCHGEARS, INTERRUPTORES Y RELÉS DE PROTECCIÓN - SOUTHERN",0,1/1/2016,0,68,,1,07/8/2020 23:38:43
310,00298,OBRAS CIVILES LT 60 KV PARQUE INDUSTRIAL HYO ESTE Y ADECUACIONES,0,1/1/2016,0,68,,1,07/8/2020 23:38:43
311,00299,SERVICIO DE SUBSANACIÓN DE DEFICIENCIAS DE DMS EN MEDIA TENSIÓN EN EL AMBITO DEL SEM VALLE DEL MANTARO DE ELECTROCENTRO,0,1/1/2016,0,68,,1,07/8/2020 23:38:43
312,00300,SERVICIO DE ELABORACIÓN TÉCNICO PARA EL DISEÑO DE SUBESTACIÓN DE 03MVA-10/4.16KV Y LÍNEAS DE MEDIA TENSIÓN ASOCIADAS EN 10KV Y 4.16KV,0,1/1/2016,0,68,,1,07/8/2020 23:38:43
313,00301,"SERVICIO DE MONTAJE DE 2 POSTES DE 18 Y 22 METROS, MONTAJE Y DESMONTAJE DE LINEA DE 10KV",0,1/1/2016,0,68,,1,07/8/2020 23:38:43
314,00302,INSTALACION DE BANDEJAS EN PLANTA CONCENTRADORA (ADICIONAL DEL PROYECTO CP/GW-233-2015),0,1/1/2016,0,68,,1,07/8/2020 23:38:43
315,00303,SERVICIO DE PRUEBA DE 02 RELES DE PROTECCION T60 Y F650,0,1/1/2016,0,68,,1,07/8/2020 23:38:43
316,00304,SERCICIO DE MANTENIMIENTO PREVENTIVO DE LA SUBTACION SE CHILCAYOCC LINEA 33 Y 60 KV (ADICIONAL),0,1/1/2016,0,68,,1,07/8/2020 23:38:43
317,00305,SERVICIO DE ALQUILER DE EQUIPOS DE PRUEBA: EQUIPO DE PRUEBA DE INTERRUPTORES OMICROM CIBANO 500 Y EQUIPO DE PRUEBA DE INTEGRIDAD DE VACIO VANGUARD VBT-80P,0,1/1/2016,0,68,,1,07/8/2020 23:38:43
318,00306,SERVICIO DE ALQUILER DE EQUIPO DE PRUEBA: EQUIPO DE PRUEBA DE INTEGRIDAD DE VACIO VANGUARD EQUIPO DE PRUEBA DE INTERRUPTORES CIBANO 500,0,1/1/2016,0,68,,1,07/8/2020 23:38:43
319,00307,MANTENIMIENTO PREVENTIVO DE LA SUBESTACION CHILCYOC Y LINEA 33KV Y 60 KV (LINIERO) MAYO 2016,0,1/1/2016,0,68,,1,07/8/2020 23:38:43
320,00308,"TENDIDO DE CABLE DE RED EN GERENCIA, HABITACIONES Y BÚNGALOS/UYUCCASA",0,1/1/2016,0,68,,1,07/8/2020 23:38:43
321,00309,IZAJE DE POSTE DE MADERA PARA SUBSANACIÓN DE REDES SECUNDARIAS Y COMUNICACIONES (PLANTA CONCENTRADORA),0,1/1/2016,0,68,,1,07/8/2020 23:38:43
322,00310,MANTENIMIENTO MOTOR 125HP BOMBA DE RECIRCULACION MOLINO MARCY,0,1/1/2016,0,68,,1,07/8/2020 23:38:43
323,00311,"SUMINISTRO DE MATERIALES (19), MONTAJE E INSTALACIÓN (08) DE SISTEMA DE PROTECCIÓN POR DESCARGAS ATMOSFÉRICAS",0,1/1/2016,0,68,,1,07/8/2020 23:38:43
324,00312,SERVICIO DE PERSONAL PARA OPERACIÓN DE SUBESTACIÓN DE POTENCIA 138/50 KV,0,1/1/2016,0,68,,1,07/8/2020 23:38:43
325,00313,INSTALACION CONFIGURACION Y PRUEBAS DE RELES SEL351A EN SW-ROOM´S,0,1/1/2016,0,68,,1,07/8/2020 23:38:43
326,00314,"SUMINISTRO, TRANSPORTE, MONTAJE ELECTROMECANICO PRUEBAS Y PUESTA EN SERVICIO DE LA IMPLEMENTACIÓN DE UN TRANSFORMADOR DE 15MVA EN LA SUB ESTACIÓN HUANCAYO ESTE Y UNA BAHÍA EN 60KV DE LLEGADA EN LA SUB ESTACIÓN PARQUE INDUSTRIAL CON SU LÍNEA DE INTERCONEXIÓN PARA CIERRE EN ANILLO.",0,1/1/2016,0,68,,1,07/8/2020 23:38:43
327,00315,CAMBIO DE ESTRUCTURAS PRECARIAS EN BAJA TENSIÓN EN UU.NN. TUMBES-I ETAPA,0,1/1/2016,0,68,,1,07/8/2020 23:38:43
328,00316,"SUBSANACIÓN DE DEFICIENCIAS EN LT-33KV, 22.9KV Y 60KV (PARADA 1RO DE JULIO 2016)",0,1/1/2016,0,68,,1,07/8/2020 23:38:43
329,00317,MANTTO PUESTA EN MARCHAVENTILADORES AXIALES TRANSFORMADOR DE POTENCIA S.E CHILCAYOC (ONAN-ONAF),0,1/1/2016,0,68,,1,07/8/2020 23:38:43
330,00318,MANTENIMIENTO MOTOR 125HP-BOMBA DESCARGA MOLINO MARCY,0,1/1/2016,0,68,,1,07/8/2020 23:38:43
331,00319,REEMPLAZO DE ANILLOS ROZANTES MOTOR 185 KW-MOLINO COMESA 7 X 8,0,1/1/2016,0,68,,1,07/8/2020 23:38:43
332,00320,REUBICACION DE LST 33KV Y SANEAMIENTO FAJA DE SERVIDUMBRE,0,1/1/2016,0,68,,1,07/8/2020 23:38:43
333,00321,SERVICIO DE MANTENIMIENTO DE SWITCHGEAR Y PRUEBAS DE INTERRUPTORES DE MEDIA TENSIÓN REFINERÍA - MMR2016,0,1/1/2016,0,68,,1,07/8/2020 23:38:43
334,00322,EJECUCIÓN DE OBRA REUBICACIÓN VANOS LST 33KV CHUPACA-HUARISCA,0,1/1/2016,0,68,,1,07/8/2020 23:38:43
335,00323,MEJORAMIENTO DE LA INSTALACION ELECTRICA POR CAIDA DE TENSIÓN CASA PRACTICANTES UYUCCASA,0,1/1/2016,0,68,,1,07/8/2020 23:38:43
336,00324,"SUMINISTRO, TRANSPORTE, MONTAJE, PRUEBAS Y PUESTA EN SERVICIO PARA EL MEJORAMIENTO DE REDES DE DISTRIBUCION PRIMARIAS Y SECUNDARIAS DE 14SEDS: 04 EN LAMBAYEQUE, 06 EN MOTUPE Y 04 EN OLMOS EN LA PROVINCIA Y DEPATAMENTO DE LAMBAYEQUE",0,1/1/2016,0,68,,1,07/8/2020 23:38:43
337,00325,"MANTENIMIENTO INTEGRAL EN PATIO DE LLAVES, PRUEBAS DE RELE DE PROTECCION Y EQUIPOS DE PATIO DE LLAVES 33 Y 4.16 KV SE SAN JERONIMO (PARADA 21 DE AGOSTO)",0,1/1/2016,0,68,,1,07/8/2020 23:38:43
338,00326,MA-1111-16 PRUEBA DE RELÉS DE PROTECCIÓN DE LOS MOLINOS Y FAJA OVERLAND,0,1/1/2016,0,68,,1,07/8/2020 23:38:43
339,00327,VENTA DE SUMINISTROS DIVERSOS,0,1/1/2016,0,68,,1,07/8/2020 23:38:43
340,00328,VENTA DE SUMINISTROS DIVERSOS,0,1/1/2016,0,68,,1,07/8/2020 23:38:43
341,00329,REUBICACION DEL CCM DEL ESPESADOR DE ZN DEL FILTRO DIEMMEN,0,1/1/2016,0,68,,1,07/8/2020 23:38:43
342,00330,INSTALACIÓN DE TABLERO DE TRANSFERENCIA PARA GRUPO GENERADOR / FILTRADO - PLANTA CONCENTRADORA,0,1/1/2016,0,68,,1,07/8/2020 23:38:43
343,00331,SUBSANACIÓN DE DEFICIENCIAS EN LT-33KV & SE CHILCAYOC,0,1/1/2016,0,68,,1,07/8/2020 23:38:43
344,00332,"ADQUISICIÓN DE CABLES DE PLCS PARA REALIZACIÓN DE BACKUP DE LOS EQUIPOS DE LA PLANTA CONCENTRADORA ""SAN JERONIMO""",0,1/1/2016,0,68,,1,07/8/2020 23:38:43
345,00333,SERVICIO DE INSPECCIÓN PEDESTRE DETALLADA DE LA LÍNEA DE TRANSMISIÓN L-2266 EN 220 KV SANTA ISABEL-CARHUAMAYO NUEVA CENTRAL YUNCÁN,0,1/1/2016,0,68,,1,07/8/2020 23:38:43
346,00334,PRUEBA DE 48 RELES DE PROTECCIÓN,0,1/1/2016,0,68,,1,07/8/2020 23:38:43
347,00335,"PRUEBA DE RELES DE PROTECCIÓN, REVISIÓN DE CIRCUITOS DE MEDIDORES Y RELES",0,1/1/2016,0,68,,1,07/8/2020 23:38:43
348,00336,LÍNEA DE TRANSMISIÓN AT 2266 DE LA CH YUNCAN,0,1/1/2016,0,68,,1,07/8/2020 23:38:43
349,00337,"SUMNISTRO, TRANSPORTE, MONTAJE, PRUEBAS Y PUESTA EN SERVICIO PARA EL MEJORAMIENTO DE REDES DE DISTRIBUCIÓN PRIMARIAS Y SECUNDARIAS DE 19SED: 03 EN LAJAS, 08 EN SANTA CRUZ, 02 EN CHOTA, 02 EN CUTERVO, 01 EN SAN ANDRES, 01 EN SAN LUIS DE LUCMA, 01 EN YATUN BAJO Y 01 EN YATUN ALTO PROVINCIAS DE CHOTA, CUTERVO Y SANTA CRUZ",0,1/1/2016,0,68,,1,07/8/2020 23:38:43
350,00338,EJECUCIÓN DE OBRA POR CONTRATA DE LA OBRA MEJORAMIENTO DE LOS SERVICIOS EDUCATIVOS DEL NIVEL PRIMARIO DE LA LOCALIDAD DE HUACHOCOLPA DEL DISTRITO DE HUACHOCOLPA TAYACAJA HUANCAVELICA,0,1/1/2016,0,68,,1,07/8/2020 23:38:43
351,00339,SERVICIO DE REEMPLAZO DE CONDUCTORES Y ADECUACIÓN DE ARMADOS DEL CIRCUITO N°02 LÍNEA DE 10KV,0,1/1/2016,0,68,,1,07/8/2020 23:38:43
352,00340,MANTENIMIENTO CORRECTIVO Y PREVENTIVO EN LT-33KV Y LT 60KV (PARADA 04 SEPTIEMBRE 2016),0,1/1/2016,0,68,,1,07/8/2020 23:38:43
353,00341,MANTENIMIENTO ELÉCTRICO DE LA PLANTA DE TRATAMIENTO DE AGUA BOLIVAR,0,1/1/2016,0,68,,1,07/8/2020 23:38:43
354,00342,ESTANDARIZACIÓN Y MEJORA DE CIRCUITOS DE DISTRIBUCIÓN DE POLICLÍNICO NATCLAR,0,1/1/2016,0,68,,1,07/8/2020 23:38:43
355,00343,REUBICACIÓN RED SECUNDARIA DEBIDO A HABILITACIÓN DE NUEVA VÍA VEHICULAR/RELAVERA AMANDA,0,1/1/2016,0,68,,1,07/8/2020 23:38:43
356,00344,SERVICIO DE REUBICACIÓN DE LA LÍNEA EXISTENTE EN 22.9KV EN LA ZONA DE CANCARIAS,0,1/1/2016,0,68,,1,07/8/2020 23:38:43
357,00345,REUBICACION DE LP 4.16KV E INSTALACIÓN DE REDES SECUNDARIAS (220 Y 440V) PARA LA ILUMINACIÓN Y ZARANDA/DESMONTERA SANCHEZ,0,1/1/2016,0,68,,1,07/8/2020 23:38:43
358,00346,SERVICIO MANTENIMIENTO DE SUBESTACIONES DE TRANSMISIÓN Y LÍNEAS DE SUBTRANSMISIÓN,0,1/1/2016,0,68,,1,07/8/2020 23:38:43
359,00347,MONTAJE E INSTALACION DE ONCE SISTEMAS DE PROTECCIÓN POR DESCARGAS ATMOSFÉRICAS,0,1/1/2016,0,68,,1,07/8/2020 23:38:43
360,00348,SERVICIO DE CAMBIO DE PERFILES DE ACERO DE TORRE E-39 TIPO C2 DE LA LLTT 2266 DE LA CH YUNCAN,0,1/1/2016,0,68,,1,07/8/2020 23:38:43
361,00349,SUBSANACIÓN DE DEFICIENCIAS EN LT-33KV (PARADA 20 DE OCTUBRE 2016),0,1/1/2016,0,68,,1,07/8/2020 23:38:43
362,00350,"SUBSANACIÓN DE DISTANCIA MINIMA DE SEGURIDAD ""DMS"" EN POSTE DE BALANZA / PLANTA CONCENTRADORA",0,1/1/2016,0,68,,1,07/8/2020 23:38:43
363,00351,TENDIDO DE CONDUCTOR PARA ABASTECIMIENTO ENERGÍA ELÉCTRICA MÁQUINA PERFORADORA 90KW CANCHA RELAVERA # 07 (PLANTA CONCENTRADORA),0,1/1/2016,0,68,,1,07/8/2020 23:38:43
364,00352,INSTALACIÓN DE REFLECTORES PARA LA ILUMINACIÓN DE NUEVO ACCESO VEHICULAR - RELAVERA AMANDA,0,1/1/2016,0,68,,1,07/8/2020 23:38:43
365,00353,TENDIDO DE CONDUCTOR PARA ABASTECIMIENTO ENERGÍA ELÉCTRICA MÁQUINA PERFORADORA 90KW CANCHA RELAVERA # 05 (PLANTA CONCENTRADORA),0,1/1/2016,0,68,,1,07/8/2020 23:38:43
366,00354,"SUMINISTRO, TRANSPORTE, MONTAJE, PRUEBAS Y PUESTA EN SERVICIO PARA EL MEJORAMIENTO DE REDES DE DISTRIBUCIÓN PRIMARIAS Y SECUNDARIAS DE 19 SED: 04 EN LLAMA, 02 EN NIEPOS, 01 EN CATACHE, 01 EN CHOGOYAPE, 04 EN LAGUNAS, 02 EN OYOTUN Y 05 EN ZAÑA EN LAS PROVINCIAS DE CHOTA, SAN MIGUEL, SANTA CRUZ Y CHICLAYO, DEPARTAMENTOS DE CAJAMARCA Y LAMBAYEQUE",0,1/1/2016,0,68,,1,07/8/2020 23:38:43
367,00355,VENTA DE SUMNISTROS DE MATERIALES DE CABLE PLC PARA LA REALIZACION DE BACKUP DE DATOS EQUIPOS DE LA PLANTA CONCENTRADORA SAN JERONIMO,0,1/1/2016,0,68,,1,07/8/2020 23:38:43
368,00356,LIMPIEZA DE EQUIPOS DE POTENCIA DE LA HABIA DE 44 KV DE LA SET DE CONDORCOCHA,0,1/1/2016,0,68,,1,07/8/2020 23:38:43
369,00357,VENTA EQUIPOS ELECTRICOS,0,1/1/2016,0,68,,1,07/8/2020 23:38:43
370,00358,SERVICIO DE ELABORACION DEL EXPEDIENTE TECNICO DEFINITIVO INSTALACION DE COMPENSACIÓN REACTIVA EN LA SET CHALLAPAMPA CERRO COLORADO,0,1/1/2016,0,68,,1,07/8/2020 23:38:43
371,00359,PRUEBAS Y SETEO DE RELE DE FRECUENCIA DE ACUERDO AL ESQUEMA DE RECHAZO DE CARGA UCHUCCHACUA 2017,0,1/1/2016,0,68,,1,07/8/2020 23:38:43
372,00360,"CONFIGURACIÓN, AJUSTES Y PRUEBAS DEL RELE ABB REF630 PARA EL RECHAZO AUTOMÁTICO DE CARGA POR MÍNIMA FRECUENCIA 2017",0,1/1/2016,0,68,,1,07/8/2020 23:38:43
373,00361,SERVICIO DE LEVANTAMIENTO DE OBSERVACIONES DE AUDITORIA MANTENIMIENTO ELECTRICO,0,1/1/2016,0,68,,1,07/8/2020 23:38:43
374,00362,MANTENIMIENTO CORRECTIVO DE LINEA DE 60KV EN LA ZONA DE HUANCARAY. NOVIEMBRE 2016,0,1/1/2016,0,68,,1,07/8/2020 23:38:43
375,00363,"IMPLEMENTACION DE COMPENSACIÓN REACTIVA DE 60KV EN SET PAITA, DEPARTAMENTO DE PIURA",0,1/1/2016,0,68,,1,07/8/2020 23:38:43
376,00364,INSTALACIÓN DE SIRENAS Y CIRCULINA EN PLANTA CONCENTRADORA,0,1/1/2016,0,68,,1,07/8/2020 23:38:43
377,00365,AMPLIACION DE LA SUB ESTACIÓN DE POTENCIA CHILCAYOCC 8.25/8.25/1.5 MVA (ONAF) – 60/35/2.4 KV,0,1/1/2016,0,68,,1,07/8/2020 23:38:43
378,00366,REPOTENCIACIÓN DE LA LST EN 33KV CHILCAYOCC A QUEROBAMBA - II ETAPA,0,1/1/2017,0,68,,1,07/8/2020 23:38:43
379,00367,MANTENIMIENTO DE LÍNEAS ELÉCTRICAS Y SUBESTACIONES,0,1/1/2017,0,68,,1,07/8/2020 23:38:43
380,00368,RECONSTRUCCION DE INFRAESTRUCTURA HIDRAULICA Y ACCESOS EN LA TOMA RIO LLAYLLA,0,1/1/2017,0,68,,1,07/8/2020 23:38:43
381,00369,"INSTALACION DE SISTEMA DE ARRANQUE ESTRELLA TRIANGULO DE VENTILADOR 240,000 CFM",0,1/1/2017,0,68,,1,07/8/2020 23:38:43
382,00370,MANTENIMIENTO PREVENTIVO Y PRUEBAS ELECTRICAS EN LA LINEA 33KV,0,1/1/2017,0,68,,1,07/8/2020 23:38:43
383,00371,"SERVICIO TENDIDO DE CABLE SECO DE 95MM2, 2600M EN INTERIOR MINA - DICIEMBRE 2016",0,1/1/2017,0,68,,1,07/8/2020 23:38:43
384,00372,INSTALACIÓN DE CONECTORES PARA PUESTA EN SERVICIO DE TRANSFORMADORES DE POTENCIA - SUBESTACIÓN BOLIVAR,0,1/1/2017,0,68,,1,07/8/2020 23:38:43
385,00373,"HABILITACIÓN DE PROTECCION DE RESPALDO EN LA CELDA 22,9KV",0,1/1/2017,0,68,,1,07/8/2020 23:38:43
386,00374,"SUMINISTRO, TRANSPORTE, MONTAJE, PRUEBAS Y PUESTA EN SERVICIO DE LA CELDA DE LLEGADA 60 KV. DE LA LÍNEA DE TRANSMISIÓN L6038 EN LA SUBESTACIÓN LAMBAYEQUE, DISTRITO, PROVINCIA Y DEPARTAMENTO DE LAMBAYEQUE",0,1/1/2017,0,68,,1,07/8/2020 23:38:43
387,00375,INSTALACION DE RELES DE PROTECCIÓN FUNCION 81U - 81R Y PRUEBAS DE FUNCIONALES A 22 RELES ERACMF 2017,0,1/1/2017,0,68,,1,07/8/2020 23:38:43
388,00376,"MEJORAMIENTO AMPLIACION DE LA CAPACIDAD DE TRANSFORMACIÓN EN SET TUMBES, PROVINCIA Y DEPARTAMENTO DE TUMBES",0,1/1/2017,0,68,,1,07/8/2020 23:38:43
389,00377,REPOTENCIACIÓN DE LA LÍNEA DE SUBTRANSMISIÓN EN 33KV QUEROBAMBA A SE BOLIVAR - III ETAPA,0,1/1/2017,0,68,,1,07/8/2020 23:38:43
390,00378,INSTALACIÓN DE ENERGÍA ELÉCTRICA PROVISIONAL PARA ZARANDA (DESMONTERA SANCHEZ),0,1/1/2017,0,68,,1,07/8/2020 23:38:43
391,00379,IMPLEMENTACION DE NUEVA PLANTA DE SECADO DIAGONAL FILTRO PRENSA CIDELCO PLANTA SJ,0,1/1/2017,0,68,,1,07/8/2020 23:38:43
392,00380,REUBICACIÓN DE ESTRUCTURA TRAFOMIX BIPOSTE SUBESTACIÓN TUNEL DEL SUR,0,1/1/2017,0,68,,1,07/8/2020 23:38:43
393,00381,DESMONTAJE Y MONTAJE DE TRANSFORMADOR DE 50KVA - SANTA ROSA,0,1/1/2017,0,68,,1,07/8/2020 23:38:43
394,00382,REHUBICACIÓN TRANSFORMADOR 1.25 MVA ABASTECIMIENTO ENERGÍA GRUPO SE BOLIVAR - ENERO 2017,0,1/1/2017,0,68,,1,07/8/2020 23:38:43
395,00383,INSTALACION CELDA MT PUESTA EN SERVICIO TRANSFORMADOR 33KV SE BOLIVAR - ENERO 2017,0,1/1/2017,0,68,,1,07/8/2020 23:38:43
396,00384,SERVICIO DE SUPERVISION DE LT 33 Y 60KV MES DE ENERO 2017,0,1/1/2017,0,68,,1,07/8/2020 23:38:43
397,00385,ACTUALIZACIÓN DEL SISTEMA DE CONTROL DE ARRANQUE AUTOMÁTICO EN EL REOSTATO DEL MOLINO DE BARRAS,0,1/1/2017,0,68,,1,07/8/2020 23:38:43
398,00386,"PERSONAL PARA TRABAJOS DE PARADA MAYOR DE PLANTA ""MINERA CHINALCO""",0,1/1/2017,0,68,,1,07/8/2020 23:38:43
399,00387,"MONTAJE ELECTROMECÁNICO DE LÍNEA DE TRANSMISIÓN 138KV, S.E. LA VIRGEN – S.E. CARIPA.",0,1/1/2017,0,68,,1,07/8/2020 23:38:43
400,00388,INSPECCIÓN DE LA LÍNEA DE TRANSMISIÓN 138 KV SE LA VIRGEN - SE CARIPA PROYECTO LA VIRGEN,0,1/1/2017,0,68,,1,07/8/2020 23:38:43
401,00389,REEMPLADO DE REFLECTORES EXISTENTES POR REFLECTORES LED PARA MEJORAMIENTO DE ILUMINACIÓN EN CHANCADO Y MOLIENDA (PLANTA CONCENTRADORA),0,1/1/2017,0,68,,1,07/8/2020 23:38:43
402,00390,MANTENIMIENTO Y REPOTENCIACIÓN DE PARAYARROS PARA PROTECCIÓN CONTRA DESCARGAS ATMOSFÉRICAS,0,1/1/2017,0,68,,1,07/8/2020 23:38:43
403,00391,MANTENIMIENTO ELÉCTRICO Y TRABAJOS ELECTROMECÁNICOS TANTO EN LÍNEA PRINCIPAL DE 33KV Y 60KV COMO EN MINA Y PLANTA CONCENTRADORA DE LA UNIDAD MINERA,0,1/1/2017,0,68,,1,07/8/2020 23:38:43
404,00392,MEJORAMIENTO ILUMINACIÓN DE RELAVES - PLANTA CONCENTRADORA,0,1/1/2017,0,68,,1,07/8/2020 23:38:43
405,00393,INTEGRACIÓN BOMBAS WARMAN 200 A SISTEMA SCADA DE PLANTA RELAVES,0,1/1/2017,0,68,,1,07/8/2020 23:38:43
406,00394,MANTENIMIENTO PREVENTIVO FILTRO DE ARMÓNICOS 23 KV DEL ÁREA DE SUBESTACIONES,0,1/1/2017,0,68,,1,07/8/2020 23:38:43
407,00395,ACTUALIZACION DE RECHAZO DE CARGA POR MÍNIMA FRECUENCIA - 2017,0,1/1/2017,0,68,,1,07/8/2020 23:38:43
408,00396,RESITUCION DE SERVICIO DE ENERGÍA ELECTRICA DE LT 22.9KV DEBIDO A POSTES CAIDOS - FEBRERO 2017.,0,1/1/2017,0,68,,1,07/8/2020 23:38:43
409,00397,SERVICIO DE INSTALACION DE REGISTRADORES DE ASISTENCIA DE PERSONAL - FEBRERO 2017.,0,1/1/2017,0,68,,1,07/8/2020 23:38:43
410,00398,SERVICIO DE TENDIDO DE CONDUCTOR DE BT POR BANDEJA Y CONEXIÓN A GRUPOS ELECTROGENOS SE BOLIVAR - FEBRERO 2017.,0,1/1/2017,0,68,,1,07/8/2020 23:38:43
411,00399,SUMINISTRO DE MATERIALES PARA LA LÍNEA DE TRANSMISIÓN 138 KV SE LA VIRGEN,0,1/1/2017,0,68,,1,07/8/2020 23:38:43
412,00400,MA-583-17 MOX SERVICIO DE MANTENIMIENTO Y PRUEBASDE RELE DE PROTECCION E INTERRUPTORES,0,1/1/2017,0,68,,1,07/8/2020 23:38:43
413,00401,"SUMINISTRO, TRANSPORTE, MONTAJE ELECTROMECÁNICO, PRUEBAS Y PUESTA EN SERVICIO DE LA AMPLIACIÓN DE LÌNEA PRIMARIA, REDES PRIMARIAS, REDES SECUNDARIAS Y AP, XXIII DE LAS UU.NN HUANCAYO - HUANCAVELICA - VALLE DEL MANTARO.",0,1/1/2017,0,68,,1,07/8/2020 23:38:43
414,00402,SERVICIO DE CONFIGURACIÓN DE PROTECCIONES DE VENTILADORES DE 600 HP CHACUAPUNTA,0,1/1/2017,0,68,,1,07/8/2020 23:38:43
415,00403,MANTENIMIENTO PREVENTIVO DE PATIO 220 KV - LIMPIEZA DE AISLADORES EN 220 KV - 2017 MANTENIMIENTO DE 03 BAHÍAS 220KV SET TOROMOCHO,0,1/1/2017,0,68,,1,07/8/2020 23:38:43
416,00404,REMODELACIÓN DE LÍNEA PRIMARIA EN 22.9 KV UCHUCCHACUA,0,1/1/2017,0,68,,1,07/8/2020 23:38:43
417,00405,ELABORACIÓN DE ESTUDIO DEFINITIVO DE MEJORAMIENTO DE REDES MT Y BT DE LOS ALIMENTADORES A4301 S.E. HUAYUCACHI Y A4332 S.E. CHONGOS ALTO - U.N. HUANCAYO,0,1/1/2017,0,68,,1,07/8/2020 23:38:43
418,00406,MANTENIMIENTO BAHÍAS 220 KV SET POMACOCHA,0,1/1/2017,0,68,,1,07/8/2020 23:38:43
419,00407,"ESTANDARIZACIÓN Y AMPLIACIÓN SE BOLIVAR II CON SUMINISTRO PARCIAL, CORRECCIÓN LÍNEA DUPLEX ETAPA I Y ECP SISTEMA ELÉCTRICO",0,1/1/2017,0,68,,1,07/8/2020 23:38:43
420,00408,DESARROLLO DE INGENIERÍA – DIBUJO DE PLANOS,0,1/1/2017,0,68,,1,07/8/2020 23:38:43
421,00409,"ELABORACIÓN DE DOS ESTUDIOS DEFINITIVOS - PROYECTO 01: ""IMPLEMENTACIÓN DE CELDA DE LÍNEA DE 60KV EN DERIVACIÓN A SET LOMA LARGA, PROVINCIA DE MORROPÓN, DEPARTAMENTO DE PIURA"". PROYECTO 02: ""IMPLEMENTACIÓN DE NUEVA CELDA DE ACOPLAMIENTO DE 10KV EN LA SET SULLANA, PROVINCIA DE SULLANA, DEPARTAMENTO DE PIURA""",0,1/1/2017,0,68,,1,07/8/2020 23:38:43
422,00410,MANTENIMIENTO CORRECTIVO DE RELÉS DE PROTECCIÓN DE GENERADOR,0,1/1/2017,0,68,,1,07/8/2020 23:38:43
423,00411,SERVICIO DE INSPECCIÓN DE 21 PARARRAYOS TIPO MÁSTIL EN U.M.RAURA,0,1/1/2017,0,68,,1,07/8/2020 23:38:43
424,00412,CAMBIO DE ALIMENTACIÓN SERVICIOS AUXILIARES FUNDICION - CT ILO 1,0,1/1/2017,0,68,,1,07/8/2020 23:38:43
425,00413,MANTENIMIENTO REPARACIÓN DE EQUIPO Y MAQUINARIA,0,1/1/2017,0,68,,1,07/8/2020 23:38:43
426,00414,AMPLIACIÓN DE CAPACIDAD DE LA LÍNEA 33 KV - ETAPA II CATALINA HUANCA DISTRITO DE SUCRE - AYACUCHO,0,1/1/2017,0,68,,1,07/8/2020 23:38:43
427,00415,SERVICIO DE MEDICIÓN DE TENSIONES DE TOQUE Y PASO,0,1/1/2017,0,68,,1,07/8/2020 23:38:43
428,00416,OBRAS CIVILES INSTALACIÓN DE TRES PARARRAYOS,0,1/1/2017,0,68,,1,07/8/2020 23:38:43
429,00417,SERVICIO EN SITIO DE PRUEBA RELÉ DE PROTECCIÓN CH. QUITARACSA,0,1/1/2017,0,68,,1,07/8/2020 23:38:43
430,00418,MANTENIMIENTO PREVENTIVO / CORRECTIVO DE LÍNEAS ELÉCTRICAS DE 220-23KV PARADA MAYOR DE PLANTA,0,1/1/2017,0,68,,1,07/8/2020 23:38:43
431,00419,"ESTUDIO DEFINITIVO PARA EMPLIACIÓN DE LA CAPACIDAD DE SET PIURA CENTRO A 83MVA, PROVINCIA Y DEPARTAMENTO DE PIURA",0,1/1/2017,0,68,,1,07/8/2020 23:38:43
432,00420,"SUMINISTRO, TRANSPORTE, MONTAJE ELECTROMECÁNICO, PRUEBAS Y PUESTA EN SERVICIO DE LA AMPLIACIÓN DE REDES PRIMARIAS Y SECUNDARIAS POR DEMANDA XXVI-UNN AYACUCHO Y HUANCAVELICA",0,1/1/2017,0,68,,1,07/8/2020 23:38:43
433,00421,MONTAJE DE BANDEJAS Y TENDIDO DE CONDUCTORES MT PARA ABASTECIMIENTO DE ENERGÍA ELÉCTRICA DE LA TRONCAL PRINCIPAL DE MINA,0,1/1/2017,0,68,,1,07/8/2020 23:38:43
434,00422,PUESTA EN MARCHA DE EQUIPAMIENTO ELÉCTRICO PARA ABASTECIMIENTO DE ENERGÍA DEL VENTILADOR 120KCFM ALIMAK 3 CX 721 NV,0,1/1/2017,0,68,,1,07/8/2020 23:38:43
435,00423,OBRAS CIVILES INSTALACION DE TRES PARARRAYOS,0,1/1/2017,0,68,,1,07/8/2020 23:38:43
436,00424,SERVICIO DE OPERACIÓN DE SUBESTACIONES DE POTENCIA Y GRUPOS TÉRMICOS BAJO LA ADMINISTRACIÓN DE ELECTROCENTRO S.A - 03 MESES,0,1/1/2017,0,68,,1,07/8/2020 23:38:43
437,00425,"SERVICIO DE MANTENIMIENTO PREVENTIVO SUBESTACIÓN SD-01, PLANTA Nº2",0,1/1/2017,0,68,,1,07/8/2020 23:38:43
438,00426,"SERVICIO DE MANTENIMIENTO Y OPERACIÓN DEL SISTEMA DE REDES DE MEDIA TENSIÓN, SUBESTACIONES, BAJA TENSIÓN Y ALUMBRADO PÚBLICO EN ZONAS URBANO RURALES Y RURALES DEL ÁMBITO DE ADMINISTRACIÓN DE ELECTROCENTRO S.A - ZONA IV",0,1/1/2017,0,68,,1,07/8/2020 23:38:43
439,00427,SERVICIO DE ALQUILER DE EQUIPO DE PRUEBA CMC-356 OMICRON,0,1/1/2017,0,68,,1,07/8/2020 23:38:43
440,00428,"ELABORACIÓN DEL ESTUDIO DEFINITIVO: MEJORAMIENTO DEL SERVICIO ELÉCTRICO DE LOS ALIMENTADORES 1047 - SET TUMBES, 1052 - SET LA CRUZ, 1053 - SET ZORRITOS Y 1060 - SET CEREZOS, PROVINCIAS DE TUMBES Y CONTRALMIRANTE VILLAR, DEPARTAMENTO DE TUMBES.",0,1/1/2017,0,68,,1,07/8/2020 23:38:43
441,00429,SISTEMA DE PUESTA A TIERRA DEL SISTEMA DE VENTILACIÓN PRINCIPAL - SUBESTACIÓN ELÉCTRICA NV. 4060,0,1/1/2017,0,68,,1,07/8/2020 23:38:43
442,00430,"OBRA 3051-25A CONVERSIÓN DE ""T"" A ""PHI"" SUBESTACIÓN ELÉCTRICA DE ELECTROSUR - ILO",0,1/1/2017,0,68,,1,07/8/2020 23:38:43
443,00431,SERVICIO POR TENDIDO DE FIBRA OPTICA - PLANTA,0,1/1/2017,0,68,,1,07/8/2020 23:38:43
444,00432,RENOVACIÓN Y MODERNIZACIÓN DE LOS EQUIPOS DE PROTECCIÓN Y MEDICIÓN DE LA SUBESTACIÓN MOVIL N° 07,0,1/1/2017,0,68,,1,07/8/2020 23:38:43
445,00433,"INSTALACION DEL SISTEMA DE PUESTA A TIERRA PARA CONTROL, INSTRUMENTACIÓN Y POTENCIA / NUEVA PLANTA DE TRATAMIENTO BOLIVAR",0,1/1/2017,0,68,,1,07/8/2020 23:38:43
446,00434,SERVICIO DE REPARACIÓN Y MANTENIMIENTO DE INTERRUPTORES ELÉCTRICOS (MANTENIMIENTO SWITCH HOUSE 7.2 KV),0,1/1/2017,0,68,,1,07/8/2020 23:38:43
447,00435,SERVICIO DE MANTENIMIENTO DE SUB ESTACIÓN ELÉCTRICA (SERVICIO DE MANTENIMIENTO DE SUB ESTACIÓN DE 5 MVA),0,1/1/2017,0,68,,1,07/8/2020 23:38:43
448,00436,SERVICIO DE ESTUDIO DE PROTECCIÓN Y CONFIGURACIÓN DEL SISTEMA ELÉCTRICO (ESTUDIO DE COORDINACIÓN DE PROTECCIONES Y CONFIGURACIÓN Y PRUEBA DE RELÉS DE PROTECCIÓN),0,1/1/2017,0,68,,1,07/8/2020 23:38:43
449,00437,"SERVICIO DE SUPERVISIÓN DE EJECUCIÓN DE LA OBRA: ""SUMINISTRO DE MATERIALES COMPLEMENTARIOS, TRANSPORTE, OBRAS CIVILES, MONTAJE, PRUEBAS Y PUESTA EN SERVICIO PARA LA AMPLIACIÓN DE LA SUB ESTACIÓN POMALCA Y ADECUACIÓN SALIDAS DE ALIMENTADORES DE MEDIA TENSIÓN""",0,1/1/2017,0,68,,1,07/8/2020 23:38:43
450,00438,SERVICIO DE OPERACIÓN DE SUBESTACIONES DE POTENCIA Y GRUPOS TÉRMICOS BAJO LA ADMINISTRACIÓN DE ELECTROCENTRO S.A,0,1/1/2017,0,68,,1,07/8/2020 23:38:43
451,00439,INSTALACIÓN DE SISTEMAS DE PROTECCIÓN CONTRA DESCARGAS ATMOSFÉRICAS,0,1/1/2017,0,68,,1,07/8/2020 23:38:43
452,00440,"SUMINISTRO, TRANSPORTE, MONTAJE ELECTROMECANICO PRUEBAS Y PUESTA EN SERVICIO DE LA INSTALACIÓN Y MEJORAMIENTO DE SISTEMAS DE ELECTRIFICACIÓN RURAL DE 28 LOCALIDADES PICHARI (ZONA URBANO MARGINAL DE PICHARI CAPITAL, LOCALIDAD DE MANTARO, 11 COMUNIDADES DEL CENTRO POBLADO DE NATIVIDAD Y CENTRO POBLADO DE MANTARO, COMUNIDAD DE UNIÓN TARANCATO ALTO, PEDRO RUIZ GALLO Y NUEVA GENERACIÓN)",0,1/1/2017,0,68,,1,07/8/2020 23:38:43
453,00441,TRABAJOS DE INSTALACIÓN Y MONTAJE DE SUB ESTACIONES ELÉCTRICAS Y TENDIDO DE CABLE EN BAJA TENSIÓN Y MONTAJE DE ARRANCADORES Y CONEXIÓN GENERAL,0,1/1/2017,0,68,,1,07/8/2020 23:38:43
454,00442,"MEJORAMIENTO Y AMPLIACIÓN DE REDES ELECTRICAS EN MT Y BT EN LAS URBANIZACIONES EL JARDÍN, MARIANO SANTOS, RAMIRO PRIALE, AAHH 26 DE ENERO-JIBITO C.P. COLA DE ALACRÁN - SULLANA.",0,1/1/2017,0,68,,1,07/8/2020 23:38:43
455,00443,EJECUCIÓN DE TRABAJOS DE MANTENIMIENTO ELÉCTRICOS EN INTERIOR MINA,0,1/1/2017,0,68,,1,07/8/2020 23:38:43
456,00444,"SERVICIO DE CONFIGURACIÓN, AJUSTES Y PRUEBAS DE RELE ABB REF 630 PARA EL RECHAZO AUTOMÁTICO DE CARGA POR MINIMA FRECUENCIA",0,1/1/2017,0,68,,1,07/8/2020 23:38:43
457,00445,"MEJORAMIENTO Y AMPLIACIÓN DEL SISTEMA DE DISTRIBUCIÓN EN MEDIA Y BAJA TENSIÓN DE TRECE (13) SED, EN LOS DISTRITOS DE VICHAYAL, LA HUACA, EL ARENAL E IGNACIO ESCUDERO, DE LAS PROVINCIAS DE PAITA Y SULLANA, DEPARTAMENTO DE PIURA",0,1/1/2017,0,68,,1,07/8/2020 23:38:43
458,00446,SERVICIO DE PRUEBAS FUNCIONALES A RELÉS DE RECHAZO DE CARGA ERACMF 2018,0,1/1/2017,0,68,,1,07/8/2020 23:38:43
459,00447,INSTALACIÓN DEL EQUIPAMIENTO ELÉCTRICO PARA EL SISTEMA DE BOMBEO DE AGUA SALADA EN INTERIOR MINA,0,1/1/2017,0,68,,1,07/8/2020 23:38:43
460,00448,PUESTA EN MARCHA DEL EQUIPAMIENTO ELÉCTRICO PARA ABASTECIMIENTO DE ENERGÍA DEL SISTEMA DE PERFORACIÓN RAISE BORING NV.188 – SE 1005 Y NV. 2870 – SE 1015,0,1/1/2017,0,68,,1,07/8/2020 23:38:43
461,00449,DC - 07500 SECCIONADOR DE LÍNEA 60KV SERVICIO DE INSTALACIÓN Y SUMINISTRO DE MÓDULO PARA VIVIENDA PRE FABRICADO EN SS.E.E. CHILCAYOC,0,1/1/2018,0,68,,1,07/8/2020 23:38:43
462,00450,MANTENIMIENTO PREVENTIVO DE PATIO S.E. TOROMOCHO Y FILTRO DE ARMÓNICOS 220/23 KV PM PATIO 220 KV SE TOROMOCHO - FEB 2018,0,1/1/2018,0,68,,1,07/8/2020 23:38:43
463,00451,MANTENIMIENTO PREVENTIVO DE PATIO S.E. TOROMOCHO Y FILTRO DE ARMÓNICOS 23 KV PM FILTRO ARMÓNICOS 23 - ENE 2018,0,1/1/2018,0,68,,1,07/8/2020 23:38:43
464,00452,REHABILITACIÓN DEL SCADA Y SISTEMA DE MANDO INTERRUPTOR DE 60 KV - SE ANDAHUAYLAS,0,1/1/2018,0,68,,1,07/8/2020 23:38:43
465,00453,SERVICIO PRUEBA RELÉS TURBINAS CT CHILCA 1 & 2 2018 - 2019/REF. PROPUESTA GW17-PR373A-1/SOLPED 10137103,0,1/1/2018,0,68,,1,07/8/2020 23:38:43
466,00454,EQUIPO DE PRUEBA CMC-356 MÁS ACCESORIOS,0,1/1/2018,0,68,,1,07/8/2020 23:38:43
467,00455,MANTENIMIENTO PREVENTIVO SUBESTACIÓN PLANTA Nº2 (SD-01),0,1/1/2018,0,68,,1,07/8/2020 23:38:43
468,00456,"INSTALACIÓN DEL ESTADIO MUNICIPAL DEL CENTRO POBLADO DOS DE MAYO, DISTRITO DE ACRAQUIA - PROVINCIA DE TAYACAJA - HUANCAVELICA",0,1/1/2018,0,68,,1,07/8/2020 23:38:43
469,00457,INSTALACIÓN DEL SISTEMA DE ELECTRIFICACIÓN RURAL DE OCUVIRI DISTRITOS DE OCUVIRI - LAMPA - PUNO,0,1/1/2018,0,68,,1,07/8/2020 23:38:43
470,00458,"INSTALACIÓN DE LÍNEAS PRIMARIAS, REDES PRIMARIAS Y REDES SECUNDIARIAS DE LOS CASERIOS DE LAMBAYEQUE IV SECTOR, DISTRITO DE LAMBAYEQUE, PROVINVIA DE LAMBAYEQUE - LAMBAYEQUE",0,1/1/2018,0,68,,1,07/8/2020 23:38:43
471,00459,"INSTALACIÓN DEL SERVICIO EDUCATIVO DEL NIVEL INICIAL ESCOLARIZADO EN LA I.E. Nº 2012 EN EL CENTRO POBLADO SAN JERÓNIMO DISTRITO DE PAGOA, PROVINCIA DE SATIPO, REGIÓN JUNIN",0,1/1/2018,0,68,,1,07/8/2020 23:38:43
472,00460,"SUMINISTRO, MONTAJE E INSTALACIÓN DE CANALIZACIÓN DE FIBRA OPTICA",0,1/1/2018,0,68,,1,07/8/2020 23:38:43
473,00461,PRUEBA END TO END L-90 LT AT QUI,0,1/1/2018,0,68,,1,07/8/2020 23:38:43
474,00462,HABILITACIÓN E INSTALACIÓN DE CONDUCTOR NYY-INTERIOR MINA,0,1/1/2018,0,68,,1,07/8/2020 23:38:43
475,00463,ELABORACIÓN DE ESTUDIO DE ARCO ELÉCTRICO DE LAS BARRAS DE 13.8 KV Y 440 V,0,1/1/2018,0,68,,1,07/8/2020 23:38:43
476,00464,ALQUILER DE EQUIPO DE INTEGRIDAD DE VACÍO VANGUARD VBT-80P,0,1/1/2018,0,68,,1,07/8/2020 23:38:43
477,00465,TRABAJOS DE INSTALACIÓN Y MONTAJE DE SUB ESTACIONES ELÉCTRICAS Y TABLEROS DE BANCO DE CONDENSADORES,0,1/1/2018,0,68,,1,07/8/2020 23:38:43
478,00466,EXCAVACIÓN Y MONTAJE DE POZAS A TIERRA - INSTRUMENTACIÓN EXCAVACIÓN Y MONTAJE DE POZAS A TIERRA - MOTORES PLANTA,0,1/1/2018,0,68,,1,07/8/2020 23:38:43
479,00467,"INSTALACION DE PARARRAYOS, OBRAS CIVILES, MONTAJE ELECTROMECÁNICO Y SUMINITROS - INSTALACIONES DE MCP - CHINALCO",0,1/1/2018,0,68,,1,07/8/2020 23:38:43
480,00468,ARENADO DE TUBERÍAS CARBÓN STEEL - PROYECTO CHINALCO,0,1/1/2018,0,68,,1,07/8/2020 23:38:43
481,00469,MANTENIMIENTO DE LÍNEAS ELÉCTRICAS Y SUBESTACIONES - SISTEMA ELÉCTRICO TOROMOCHO,0,1/1/2018,0,68,,1,07/8/2020 23:38:43
482,00470,INSTALACIÓN DEL SISTEMA DE PUESTA A TIERRA PARA SALA DE COMPRESORES Y ZONA DE EVAPORACIÓN - BOLIVAR,0,1/1/2018,0,68,,1,07/8/2020 23:38:43
483,00471,PRUEBAS FUNCIONALES A RELE DE RECHAZO,0,1/1/2018,0,68,,1,07/8/2020 23:38:43
484,00472,SUMINISTRO TRANSFORMADOR 5KVA 460-230 V PARA CÁMARAS DE RESCATE,0,1/1/2018,0,68,,1,07/8/2020 23:38:43
485,00473,SUMINISTRO DE UPS EPLI 10 KVA 900 W TRANSF AISLAMIENTO Y RACK DE BATERÍAS,0,1/1/2018,0,68,,1,07/8/2020 23:38:43
486,00474,"COMISIONAMIENTO Y PUESTA EN MARCHA DE LA SUBESTACIÓN ELÉCTRICA PRINCIPAL, SUBESTACIÓN ELÉCTRICA TALLER DE LLANTAS, SUBESTACIÓN ELÉCTRICA TALLER DE VOLQUETES Y SUBESTACIÓN ELÉCTRICA ALMACÉN GENERAL- PROYECTO REUBICACIÓN DE FACILIDADES",0,1/1/2018,0,68,,1,07/8/2020 23:38:43
487,00475,SERVICIO DE REPARACIÓN Y MANTENIMIENTO DE INTERRUPTORES ELÉCTRICOS,0,1/1/2018,0,68,,1,07/8/2020 23:38:43
488,00476,REUBICACIÓN DE CCM EN EL ÁREA DE FILTRADO DE ZINC – PLANTA CONCENTRADORA,0,1/1/2018,0,68,,1,07/8/2020 23:38:43
489,00477,IMPLEMENTACIÓN DE POZOS A TIERRA LT 60KV Y 33KV – MINERA CATALINA HUANCA,0,1/1/2018,0,68,,1,07/8/2020 23:38:43
490,00478,CONSTRUCCIÓN DEL SISTEMA DE RECIRCULACIÓN DE AGUA ESTACIÓN DE BOMBEO,0,1/1/2018,0,68,,1,07/8/2020 23:38:43
491,00479,CAMBIO DE INTEGRACIÓN DE CONTROL EN 138KV. SALA ANTIGUA 138/13.8KV. SALA DE PROTECCIONES DE 138KV. SALA NUEVA 13.8KV ABB. PRUEBAS Y COMISIONAMIENTO.,0,1/1/2018,0,68,,1,07/8/2020 23:38:43
492,00480,"SERVICIO DE REPARACIÓN, MONTAJE, SUMINISTRO, TRANSPORTE Y OBRAS CIVILES PARA REPARACIÓN DE LA TORRE 23 DE LA LÍNEA DE TRANSMISIÓN 138 KV S.E. LA VIRGEN - S.E. CARIPA",0,1/1/2018,0,68,,1,07/8/2020 23:38:43
493,00481,"SERVICIO DE INGENIERÍA CONCEPTUAL PARA DOTAR DE ALIMENTACIÓN ELÉCTRICA 10KV, 40MW-UPH CARHUQUERO",0,1/1/2018,0,68,,1,07/8/2020 23:38:43
494,00482,INSTALACION DEL SISTEMA DE ILUMINACION INTELIGENTE LED EN PUENTES PEATONALES/ PLANTA CONCENTRADORA,0,1/1/2018,0,68,,1,07/8/2020 23:38:43
495,00483,REALIZAR EL TENDIDO DE CABLE ACOMETIDA - ANEXO TELÉFONO DE GARITA AMANDA,0,1/1/2018,0,68,,1,07/8/2020 23:38:43
496,00484,"MANTENIMIENTO DEL SISTEMA DE DISTRIBUCIÓN DE MT, DE SUBESTACIONES DE BAJA TENSIÓN Y DE ALUMBRADO PÚBLICO EN LOS SISTEMAS ELÉCTRICOS CHACHAPOYAS Y JAÉN DE LA GERENCIA REGIONAL AMAZONAS - CAJAMARCA - ELECTROORIENTE S.A.",0,1/1/2018,0,68,,1,07/8/2020 23:38:43
497,00485,IMPLEMENTACIÓN DEL ECP CONFIGURACIÓN Y PRUEBA DE RELES,0,1/1/2018,0,68,,1,07/8/2020 23:38:43
498,00486,SERVICIO DE ADECUACIÓN DEL ALUMBRADO PÚBLICO PARA EL CUMPLIMIENTO DEL FACTOR KALP EN EL PSE LIRCAY-ACOBAMBA II ETAPA.,0,1/1/2018,0,68,,1,07/8/2020 23:38:43
499,00487,MANTENIMIENTO PREVENTIVO DE PATIO DE FILTROS ARMONICOS EN 23 KV,0,1/1/2018,0,68,,1,07/8/2020 23:38:43
500,00488,LEVANTAMIENTO DE OBSERVACIONES SALA 700,0,1/1/2018,0,68,,1,07/8/2020 23:38:43
501,00489,"INSTALACIÓN DEL SISTEMA DE PUESTA A TIERRA PARA MOTORES EN PLANTA CONCENTRADORA: MOLIENDA Y FLOTACIÓN, FLOTACIÓN ZINC Y CHANCADORA",0,1/1/2018,0,68,,1,07/8/2020 23:38:43
502,00490,PRUEBA DE TRANSFORMADORES DE POTENCIA,0,1/1/2018,0,68,,1,07/8/2020 23:38:43
503,00491,SERVICIOS GENERALES SE GENERA EL SIGUIENTE PEDIDO POR EL SERVICIO DE MANTENIMIENTO INTEGRAL DE 2 TRANSFORMADORES DE 400 KVA Y 2000 KVA DEL PROYECTO TOROMOCHO,0,1/1/2018,0,68,,1,07/8/2020 23:38:43
504,00492,CONSTRUCCION DEL SISTEMA DE LINEA DE BOMBEO NRO 02 - PLANTA NCD PARA NUEVA LINEA DE VERTIMIENTO,0,1/1/2018,0,68,,1,07/8/2020 23:38:43
505,00493,MIGRACION DE SISTEMA DE CONTROL DE ESPESADOR DE PLOMO PARA REDUCIR LOS TIEMPOS DE ARRANQUE DE PLANTA Y REDUCCION DE HORAS HOMBRE DE MANTENIMIENTO,0,1/1/2018,0,68,,1,07/8/2020 23:38:43
506,00494,REUBICACION DE BANDEJAS Y CABLES EN ZONAS DE FLOTACION ZINC PARA CELDA OK50,0,1/1/2018,0,68,,1,07/8/2020 23:38:43
507,00495,"INGENIERÍA DEFINITIVA DE LAS REDES DE BAJA TENSIÓN, A PARTIR DE LA CENTRAL DE PANELES SOLARES DEL CASERIO DE CIRUELO, DISTRITO DE NUEVO PROGRESO, PROVINCIA DE TOCACHE, DEPARTAMENTO DE SAN MARTIN",0,1/1/2018,0,68,,1,07/8/2020 23:38:43
508,00496,CONSTRUCCIÓN DEL EDIFICIO DE LA UNIVERSIDAD PERUANA DE INTEGRACIÓN GLOBAL - UPIG INNOVATIVE,0,1/1/2018,0,68,,1,07/8/2020 23:38:43
509,00497,CONTROL DEL SISTEMA DE LINEA DE BOMBEO N°2,0,1/1/2018,0,68,,1,07/8/2020 23:38:43
510,00498,CONSTRUCCIÓN DEL SISTEMA DE RECIRCULACIÓN DE AGUA ESTACIÓN DE BOMBEO,0,1/1/2018,0,68,,1,07/8/2020 23:38:43
511,00499,"IMPLEMENTACIÓN ESTACIÓN BRIGADA, AMBULANCIA Y PERSONAL DE STAND BY-DÚPLEX PARADA 08 JULIO 2018",0,1/1/2018,0,68,,1,07/8/2020 23:38:43
512,00500,CORRECCIÓN LST 33KV ETAPA I - MINERA CATALINA HUANCA,0,1/1/2018,0,68,,1,07/8/2020 23:38:43
513,00501,"SERVICIO DE MANTENIMIENTO PARADA DE PLANTA LÍNEAS ELÉCTRICAS, MANTENIMIENTO PREVENTIVO/CORRECTIVO DE LÍNEAS ELÉCTRICAS 220-23KV PARADA MAYOR",0,1/1/2018,0,68,,1,07/8/2020 23:38:43
514,00502,"MEDICION DE TENSIONES DE TOQUE Y PASO Y RESISTENCIA DE MALLA A TIERRA - SE TIPO SHELTER 8MVA COSAPI MINERA, MINERA SHOUGANG",0,1/1/2018,0,68,,1,07/8/2020 23:38:43
515,00503,"LEVANTAMIENTO DE INFORMACIÓN TÉCNICA Y ESTUDIO DE COORDINACIÓN DE PROTECCIONES ELÉCTRICAS ""PROYECTO REPOTENCIACIÓN DEL SISTEMA ELÉCTRICO MILLSITE”; LEVANTAMIENTO DE INFORMACIÓN TÉCNICA",0,1/1/2018,0,68,,1,07/8/2020 23:38:43
516,00504,"MANTENIMIENTO PREVENTIVO SWITCHGEARS, INTERRUPTORES, RELÉS DE PROTECCIÓN, BARRAS DE MEDIA TENSIÓN, MCC'S E INSTALACIÓN DE VENTANAS INFRARROJAS EN DIFERENTES SUBESTACIONES ELÉCTRICAS DE FUNDICIÓN",0,1/1/2018,0,68,,1,07/8/2020 23:38:43
517,00505,SERVICIO DE DESENERGIZACIÓN DE 18 INSTITUCIONES PÚBLICAS - ANTIGUA MOROCOCHA,0,1/1/2018,0,68,,1,07/8/2020 23:38:43
518,00506,ALQUILER DE EQUIPO DE PRUEBA,0,1/1/2018,0,68,,1,07/8/2020 23:38:43
519,00507,"MEJORAMIENTO Y AMPLIACIÓN DE LA PRESTACIÓN DE SERVICIOS DE LA PISCINA MUNICIPAL DE LA LOCALIDAD DE PALCA, DISTRITO DE PALCA – HUANCAVELICA - HUANCAVELICA",0,1/1/2018,0,68,,1,07/8/2020 23:38:43
520,00508,MANTENIMIENTO DE LÍNEAS DE DISTRIBUCIÓN L2201 Y L2202 - MANTENIMIENTO PREDICTIVO Y PREVENTIVO EQUIPAMIENTO ELECTROMECÁNICO DE LA SUB ESTACIÓN,0,1/1/2018,0,68,,1,07/8/2020 23:38:43
521,00509,SERVICIOS ESPECIALES DE TERCERIZACIÓN,0,1/1/2018,0,68,,1,07/8/2020 23:38:43
522,00510,SERVICIO DE MANTENIMIENTO PREDICTIVO Y PREVENTIVO EN LA SE 5 MANANTIALES,0,1/1/2018,0,68,,1,07/8/2020 23:38:43
523,00511,SUMINISTRO DE TRANSFORMADORES DE CORRIENTE MODELO 115-201 (INCLUYE KIT DE MONTAJE) MARCA GENERAL ELECTRIC,0,1/1/2018,0,68,,1,07/8/2020 23:38:43
524,00512,SERVICIO DE REEMPLAZO DE RELÉS RET543_SD03,0,1/1/2018,0,68,,1,07/8/2020 23:38:43
525,00513,"CONTRATACIÓN DE LA EJECUCIÓN DE OBRA MEJORAMIENTO Y AMPLIACIÓN DEL SERVICIO DE AGUA POTABLE DE LOS SECTORES: LOS LIBERTADORES, CERRITO DE LA LIBERTAD, PULTUQUIA ALTA, PAMPAS OCOPILLA - DISTRITO DE HUANCAYO - PROVINCIA DE HUANCAYO - JUNÍN",0,1/1/2018,0,68,,1,07/8/2020 23:38:43
526,00514,"ALQUILER EQUIPO DE PRUEBA INTEGRIDAD DE VACIO VBT-80, ALQUILER 02 DIAS",0,1/1/2018,0,68,,1,07/8/2020 23:38:43
527,00515,SERVICIO DE MANTENIMIENTO PREDICTIVO Y PREVENTIVO EN LA SUBESTACIÓN 5 MANANTIALES.,0,1/1/2018,0,68,,1,07/8/2020 23:38:43
528,00516,UPGRADE SISTEMA DE PROTECCIÓN Y MEDICIÓN S.E LOCOMOTORAS,0,1/1/2018,0,68,,1,07/8/2020 23:38:43
529,00517,PRUEBA DE RELE DE RECHAZO DE CARGA REF630‐ERACMF,0,1/1/2018,0,68,,1,07/8/2020 23:38:43
530,00518,SERVICIOS DE MANTENIMIENTO DE SUBESTACIONES DE POTENCIA Y LÍNEAS DE SUBTRANSMISIÓN DE ELECTROCENTRO S.A.,0,1/1/2018,0,68,,1,07/8/2020 23:38:43
531,00519,"EJECUCIÓN DE OBRA MEJORAMIENTO Y AMPLIACIÓN DEL SISTEMA DE AGUA POTABLE Y ALCANTARILLADO DEL DISTRITO DE HUERTAS, PROVINCIA DE JAUJA, DEPARTAMENTO JUNIN",0,1/1/2018,0,68,,1,07/8/2020 23:38:43
532,00520,"REPARACIÓN Y MANTENIMIENTO PARA OTROS EQUIPOS: ALIMENTADOR DE FAJA DE COBRE 100 HP ALCANCE RECHAZO DE CARGA ERACM 2019, ACUERDO A LO REQUERIDO POR EL COES RWO-43991 REVISIÓN Y PRUEBAS DEL SISTEMA DE 651050",0,1/1/2018,0,68,,1,07/8/2020 23:38:43
533,00521,"SERVICIO DE CONFIGURACIÓN, AJUSTES Y PRUEBAS DE 03 RELES ABB REF630 Y 5 RELES SEL 751 PARA EL RECHAZO AUTOMÁTICO DE CARGA POR MÍNIMA FRECUENCIA 2019",0,1/1/2019,0,68,,1,07/8/2020 23:38:43
534,00522,"AMPLIACIÓN DE SE SAN JERÓNIMO Y SE BUNKER DEL DISTRITO DE CANARIAS, PROVINCIA DE VICTOR FAJARDO, DEPARTAMENTO DE AYACUCHO",0,1/1/2019,0,68,,1,07/8/2020 23:38:43
535,00523,SERVICIO DE PRUEBAS DE PERFORMANCE DE OPERACIÓN DE RODETES PELTON EN LA CENTRAL HIDROELÉCTRICA CHALLHUAMAYO,0,1/1/2019,0,68,,1,07/8/2020 23:38:43
536,00524,SERVICIO POR PARADA DE PLANTA MANTENIMIENTO PREVENTIVO DEL PATIO DE FILTRO DE ARMÓNICOS 23 KV,0,1/1/2019,0,68,,1,07/8/2020 23:38:43
537,00525,IMPLEMENTACIÓN DE REGULADORES DE TENSIÓN 33KV EN SUB ESTACIÓN BOLÍVAR,0,1/1/2019,0,68,,1,07/8/2020 23:38:43
538,00526,MANTENIMIENTO PREVENTIVO LÍNEA DE TRANSMISIÓN 220 KV Y LÍNEAS DE DISTRIBUCIÓN 23 KV,0,1/1/2019,0,68,,1,07/8/2020 23:38:43
539,00527,MA-213-19 PRUEBAS ELÉCTRICAS A RELES DE PROTECCIÓN,0,1/1/2019,0,68,,1,07/8/2020 23:38:43
540,00528,"ADQUISICION EQUIPAMIENTO, MONTAJE, PRUEBAS Y PUESTA EN SERVICIO PARA AMPLIACIONES DE REDES DE DISTRIBUCIÓN MT Y BT POR DEMANDA EN LAS UU NN CHICLAYO Y SUCURSALES AÑOS 2018 - 2019 ELECTRONORTE S.A.",0,1/1/2019,0,68,,1,07/8/2020 23:38:43
541,00529,"SERVICIO DE DESCARGA DE TRANSFORMADOR DE POTENCIA DE 6.5/8.25MVA, DE MEDIANTE MANIOBRAS MECÁNICAS EN S.E. SAN GERÓNIMO",0,1/1/2019,0,68,,1,07/8/2020 23:38:43
542,00530,RECONSTRCCION DE POSTE DE ALUMBRADO ZONA 700 MINERA CHINALCO,0,1/1/2019,0,68,,1,07/8/2020 23:38:43
543,00531,LEVANTAMIENTO DE OBSERVACIONES INSTALACIONES ELÉCTRICAS PLATAFORMA CRUZ DEL SUR CANTERA 05 - MCP,0,1/1/2019,0,68,,1,07/8/2020 23:38:43
544,00532,MA-214-19 SERVICIO DE MANTENIMIENTO Y PRUEBA DE RELE DE PROTECCIÓN E INTERRUPTORES EN LA PLANTA DE OXIDOS,0,1/1/2019,0,68,,1,07/8/2020 23:38:43
545,00533,VERIFICACIÓN DE RELÉS G60A Y G60B - TG41,0,1/1/2019,0,68,,1,07/8/2020 23:38:43
546,00534,MIGRACIÓN DE TABLERO DE CONTROL DE REACTIVOS,0,1/1/2019,0,68,,1,07/8/2020 23:38:43
547,00535,IMPLEMENTACIÓN DE ACOMETIDAS PRINCIPALES PLANTA FILTRADO DE ZINC,0,1/1/2019,0,68,,1,07/8/2020 23:38:43
548,00536,DESMONTAJE DE 38 ESTRUCTURAS EN DOBLE TERNA Y 2 KM DE LÍNEA ELÉCTRICA AÉREA 23KV,0,1/1/2019,0,68,,1,07/8/2020 23:38:43
549,00537,ELABORACIÓN DE ESTUDIO A NIVEL DE PERFIL AMPLIACIÓN SET CASTILLA CON TRANSFORMADOR DE 30 MVA,0,1/1/2019,0,68,,1,07/8/2020 23:38:43
550,00538,"AMPLIACIÓN DE REDES ELÉCTRICAS EN MT Y BT EN LOS AAHH VILLA UNIVERSITARIA, TACALÁ IV ETAPA Y NUEVO HORIZONTE EN CASTILLA",0,1/1/2019,0,68,,1,07/8/2020 23:38:43
551,00539,"PARADA DE PLANTA 2019 - INSTALACIÓN, CONFIGURACIÓN Y PRUEBAS DE 15 RELÉS DE PROTECCIÓN SEL351A Y 5 MEDIDORES EN LAS SALAS ELÉCTRICAS DE LA PLANTA CONCENTRADORA",0,1/1/2019,0,68,,1,07/8/2020 23:38:43
552,00540,PARADA DE PLANTA 2019 - DESMONTAJE PARA REPARACIÓN FEEDER 17 DAÑADO POR TORMENTA ELÉCTRICA,0,1/1/2019,0,68,,1,07/8/2020 23:38:43
553,00541,"MANTENIMIENTO, REPARACIÓN DE EQUIPO Y MAQUINARIA",0,1/1/2019,0,68,,1,07/8/2020 23:38:43
554,00542,MANTENIMIENTO Y REPARACIÓN DE SUBESTACIÓN,0,1/1/2019,0,68,,1,07/8/2020 23:38:43
555,00543,IMPLEMENTACIÓN Y ESTANDARIZACIÓN DEL SISTEMA DE ILUMINACIÓN EN PLANTA IMPLEMENTACIÓN DE CONTROL AUTOMÁTICO DE NIVEL PARA NUEVAS BOMBAS W-150,0,1/1/2019,0,68,,1,07/8/2020 23:38:43
556,00544,SERVICIO DE MANTENIMIENTO EN LÍNEAS DE TRANSMISIÓN Y SUBESTACIONES DE TRANSFORMACIÓN DE HIDRANDINA S.A. - PERÍODO 2019 - 2020,0,1/1/2019,0,68,,1,07/8/2020 23:38:43
557,00545,REPOTENCIACIÓN DE MOTORES Y TABLEROS BOMBAS WARMAN DE MOLINOS SECUNDARIOS,0,1/1/2019,0,68,,1,07/8/2020 23:38:43
558,00546,MANTENIMIENTO PREVENTIVO DEL PATIO DE FILTRO DE ARMÓNICOS 23 KV,0,1/1/2019,0,68,,1,07/8/2020 23:38:43
559,00547,"MEJORAMIENTO Y AMPLIACIÓN DEL SERVICIO DE ENERGÍA ELÉCTRICA MEDIANTE EL SISTEMA CONVENCIONAL EN LOS DISTRITOS DE LA PROVINCIA DE CHURCAMPA, DEPARTAMENTO DE HUANCAVELICA",0,1/1/2019,0,68,,1,07/8/2020 23:38:43
560,00548,SERVICIO DE MANTENIMIENTO DE SUB ESTACIÓN ELÉCTRICA,0,1/1/2019,0,68,,1,07/8/2020 23:38:43
561,00549,IMPLEMENTACIÓN DE SISTEMA SCADA DE ENERGÍA E IDENTIFICACIÓN DE FALLAS A DISTANCIA EN LA LÍNEA 60/33 KV / IMPLEMENTACIÓN DE LA COMPENSACIÓN REACTIVA MINA CATALINA HUANCA,0,1/1/2019,0,68,,1,07/8/2020 23:38:43
562,00550,"TRABAJOS ELÉCTRICOS EN PLANTA FILTRADO: MONTAJE DE TRANSFORMADOR, REPOTENCIACIÓN DE LA LÍNEA EN 22.9KV Y PUESTA EN SERVICIO EN S.E. FILTRADO-PLANTA CONCENTRADORA",0,1/1/2019,0,68,,1,07/8/2020 23:38:43
563,00551,SERVICIO DE MANTENIMIENTO 220 KV POMACOCHA,0,1/1/2019,0,68,,1,07/8/2020 23:38:43
564,00552,SERVICIO DE PARADA DE PLANTA 220 KV PATIO TOROMOCHO MANTENIMIENTO PREVENTIVO/CORRECTIVO SUBESTACIÓN PRINCIPAL 220 KV,0,1/1/2019,0,68,,1,07/8/2020 23:38:43
565,00553,SERVICIO DE PARADA DE PLANTA 23 KV TOROMOCHO MANTENIMIENTO PREVENTIVO/CORRECTIVO LÍNEAS ELÉCTRICAS DE 23 KV,0,1/1/2019,0,68,,1,07/8/2020 23:38:43
566,00554,"MANTENIMIENTO, REPARACIÓN DE EQUIPO Y MAQUINARIA",0,1/1/2019,0,68,,1,07/8/2020 23:38:43
567,00555,"PRUEBAS, COMISIONAMIENTO Y PUESTA EN MARCHA DE EQUIPOS ELÉCTRICOS DE PROYECTO DE REUBICACIÓN DE FACILIDADES",0,1/1/2019,0,68,,1,07/8/2020 23:38:43
568,00556,"MA-1284-19 PARADA MAYOR SRV-PRUEBAS A EQUIPOS CRÍTICOS RELÉS, INTERRUPTORES/CONTACTORES DE MEDIA",0,1/1/2019,0,68,,1,07/8/2020 23:38:43
569,00557,SERVICIO IMPLEMENTACIÓN DE TERMINAL GRÁFICO PARA MONITOREO DE BOMBAS W150,0,1/1/2019,0,68,,1,07/8/2020 23:38:43
570,00558,SERVICIO DE MEDICIÓN DE SISTEMA DE MALLA DE PUESTA A TIERRA,0,1/1/2019,0,68,,1,07/8/2020 23:38:43
571,00559,"CAMBIO DE CONDUCTOR FASE S DE LAS ESTRUCTURAS N13 A LAS N15 Y MANTENIMIENTO DE CABLES PASANTES DE LAS ESTRUCTURAS DE ANCLAJE N4, N6, N16, N17, N18, LST 33KV PLANTA CONCENTRADORA. MONTAJE DE CABLE DE GUARDA DESDE LA ESTRUCTURA E6265 A LA E6269 Y MONTAJE DE ARMADO DE REFUERZO EN LA ESTRUCTURA E6263, LST 33KV DUPLEX I ETAPA",0,1/1/2019,0,68,,1,07/8/2020 23:38:43
572,00560,"CAMBIO DE CONDUCTOR FASE S DE LAS ESTRUCTURAS N13 A LAS N15 Y MANTENIMIENTO DE CABLES PASANTES DE LAS ESTRUCTURAS DE ANCLAJE N4, N6, N16, N17, N18, LST 33KV PLANTA CONCENTRADORA.",0,1/1/2019,0,68,,1,07/8/2020 23:38:43
573,00560-I,"MONTAJE DE CABLE DE GUARDA DESDE LA ESTRUCTURA E6265 A E6269 Y MONTAJE DE ARMADO DE REFUERZO EN E6263, LST 33KV DUPLEX - I ETAPA",0,1/1/2019,0,68,,1,07/8/2020 23:38:43
574,00560-II,"ELABORACIÓN DE ESTUDIO A NIVEL DE PERFIL Y ESTUDIO DEFINITIVO DEL PROYECTO: ""AMPLIACIÓN CELDAS DE ALIMENTADORES EN SET CONCEPCIÓN, DISTRITO DE CONCEPCIÓN, PROVINCIA DE CONCEPCIÓN, DEPARTAMENTO DE JUNÍN""",0,1/1/2019,0,68,,1,07/8/2020 23:38:43
575,00561,SERVICIO DE MANTENIMIENTO DE SUB ESTACIÓN ELÉCTRICA DE 5 MVA,0,1/1/2019,0,68,,1,07/8/2020 23:38:43
576,00562,MANTENIMIENTO DE SWITCHES GEAR DE MEDIA TENSIÓN - REFINERÍA,0,1/1/2019,0,68,,1,07/8/2020 23:38:43
577,00563,FORMULACIÓN DEL ESTUDIO DE PREINVERSIÓN A NIVEL DE PERFIL Y ESTUDIO DEFINITIVO PARA EJECUCIÓN DE OBRA DEL PROYECTO ¿CREACIÓN LT 60 KV DERIV. SALESIANOS Y CELDAS CONEXAS; SET SALESIANOS DISTRITO DE HUANCAYO - PROVINCIA DE HUANCAYO - DEPARTAMENTO DE JUNÍN,0,1/1/2019,0,68,,1,07/8/2020 23:38:43
578,00564,IMPLEMENTACIÓN DE SISTEMA DE REPORTE AUTOMATICO DE ARRANQUE Y PARADA DEL MOLINO DE BARRAS Y CHANCADO POR MENSAJES DE TEXTO,0,1/1/2019,0,68,,1,07/8/2020 23:38:43
579,00565,"ELABORACION DE ESTUDIO A NIVEL DE PERFIL Y ESTUDIO DIFINITIVO DEL PROYECTO: ""AMPLIACION SET CHUPACA SEGUNDO TRANSFORMADOR 33/13.2 KV, 5MVA Y CELDAS CONEXAS, DISTRITO DE CHUPACA, PROVINCIA DE CHUPACA, DEPARTAMENTO DE JUNIN""",0,1/1/2019,0,68,,1,07/8/2020 23:38:43